# 3ds Max Wavefront OBJ Exporter v0.97b - (c)2007 guruware
# File Created: 03.11.2017 13:07:52

newmtl Material__27
	Ns 10.0000
	Ni 1.5000
	d 1.0000
	Tr 0.0000
	Tf 1.0000 1.0000 1.0000 
	illum 2
	Ka 0.5880 0.5880 0.5880
	Kd 0.5880 0.5880 0.5880
	Ks 0.0000 0.0000 0.0000
	Ke 0.0000 0.0000 0.0000
	map_Ka C:\Users\JEONGBIN\Desktop\? ??\arrowRight_ET\maps\arrowRight_A.png
	map_Kd C:\Users\JEONGBIN\Desktop\? ??\arrowRight_ET\maps\arrowRight_A.png
