{
      "list": [
            {
                  "name": "ServerRack",
                  "asset_type": "HGDRA",
                  "initProperties": {
                        "props": {
                              "setter": {
                                    "assetId": "",
                                    "popupId": "Rack_popup",
                                    "size": {
                                          "x": 1,
                                          "y": 1,
                                          "z": 1
                                    },
                                    "resource": {
                                          "objPath": "/output/resource/obj3d/server_RK/server_RK.obj",
                                          "mapPath": "/output/resource/obj3d/server_RK/maps/",
                                          "units": {
                                                "server": [
                                                            {
                                                                  "objPath": "/output/resource/obj3d/hpU1_SV/hpU1_SV.obj",
                                                                  "mapPath": "/output/resource/obj3d/hpU1_SV/maps/"
                                                            },
                                                            {
                                                                  "objPath": "/output/resource/obj3d/hpU2_SV/hpU2_SV.obj",
                                                                  "mapPath": "/output/resource/obj3d/hpU2_SV/maps/"
                                                            },
                                                            {
                                                                  "objPath": "/output/resource/obj3d/hpU4_SV/hpU4_SV.obj",
                                                                  "mapPath": "/output/resource/obj3d/hpU4_SV/maps/"
                                                            },
                                                            {
                                                                  "objPath": "/output/resource/obj3d/hpU10_SV/hpU10_SV.obj",
                                                                  "mapPath": "/output/resource/obj3d/hpU10_SV/maps/"
                                                            },
                                                            {
                                                                  "objPath": "/output/resource/obj3d/hpU20_SV/hpU20_SV.obj",
                                                                  "mapPath": "/output/resource/obj3d/hpU20_SV/maps/"
                                                            }
                                                ],
                                                "network": [
                                                      {
                                                            "objPath": "/output/resource/obj3d/ciscoU1_NT/ciscoU1_NT.obj",
                                                            "mapPath": "/output/resource/obj3d/ciscoU1_NT/maps/"
                                                      },
                                                      {
                                                            "objPath": "/output/resource/obj3d/ciscoU2_NT/ciscoU2_NT.obj",
                                                            "mapPath": "/output/resource/obj3d/ciscoU2_NT/maps/"
                                                      },
                                                      {
                                                            "objPath": "/output/resource/obj3d/ciscoU4_NT/ciscoU4_NT.obj",
                                                            "mapPath": "/output/resource/obj3d/ciscoU4_NT/maps/"
                                                      },
                                                      {
                                                            "objPath": "/output/resource/obj3d/ciscoU10_NT/ciscoU10_NT.obj",
                                                            "mapPath": "/output/resource/obj3d/ciscoU10_NT/maps/"
                                                      },
                                                      {
                                                            "objPath": "/output/resource/obj3d/ciscoU20_NT/ciscoU20_NT.obj",
                                                            "mapPath": "/output/resource/obj3d/ciscoU20_NT/maps/"
                                                      }
                                                ],
                                                "storage": [
                                                      {
                                                            "objPath": "/output/resource/obj3d/emcU1_ST/emcU1_ST.obj",
                                                            "mapPath": "/output/resource/obj3d/emcU1_ST/maps/"
                                                      },
                                                      {
                                                            "objPath": "/output/resource/obj3d/emcU2_ST/emcU2_ST.obj",
                                                            "mapPath": "/output/resource/obj3d/emcU2_ST/maps/"
                                                      },
                                                      {
                                                            "objPath": "/output/resource/obj3d/emcU4_ST/emcU4_ST.obj",
                                                            "mapPath": "/output/resource/obj3d/emcU4_ST/maps/"
                                                      },
                                                      {
                                                            "objPath": "/output/resource/obj3d/emcU10_ST/emcU10_ST.obj",
                                                            "mapPath": "/output/resource/obj3d/emcU10_ST/maps/"
                                                      },
                                                      {
                                                            "objPath": "/output/resource/obj3d/emcU20_ST/emcU20_ST.obj",
                                                            "mapPath": "/output/resource/obj3d/emcU20_ST/maps/"
                                                      }
                                                ],
                                                "backup": [
                                                      {
                                                            "objPath": "/output/resource/obj3d/oraclesunU1_ST/oraclesunU1_ST.obj",
                                                            "mapPath": "/output/resource/obj3d/oraclesunU1_ST/maps/"
                                                      },
                                                      {
                                                            "objPath": "/output/resource/obj3d/oraclesunU2_ST/oraclesunU2_ST.obj",
                                                            "mapPath": "/output/resource/obj3d/oraclesunU2_ST/maps/"
                                                      },
                                                      {
                                                            "objPath": "/output/resource/obj3d/oraclesunU4_ST/oraclesunU4_ST.obj",
                                                            "mapPath": "/output/resource/obj3d/oraclesunU4_ST/maps/"
                                                      },
                                                      {
                                                            "objPath": "/output/resource/obj3d/oraclesunU10_ST/oraclesunU10_ST.obj",
                                                            "mapPath": "/output/resource/obj3d/oraclesunU10_ST/maps/"
                                                      },
                                                      {
                                                            "objPath": "/output/resource/obj3d/oraclesunU20_ST/oraclesunU20_ST.obj",
                                                            "mapPath": "/output/resource/obj3d/oraclesunU20_ST/maps/"
                                                      }
                                                ],
                                                "security": [
                                                      {
                                                            "objPath": "/output/resource/obj3d/juniperU1_NT/juniperU1_NT.obj",
                                                            "mapPath": "/output/resource/obj3d/juniperU1_NT/maps/"
                                                      },
                                                      {
                                                            "objPath": "/output/resource/obj3d/juniperU2_NT/juniperU2_NT.obj",
                                                            "mapPath": "/output/resource/obj3d/juniperU2_NT/maps/"
                                                      },
                                                      {
                                                            "objPath": "/output/resource/obj3d/juniperU4_NT/juniperU4_NT.obj",
                                                            "mapPath": "/output/resource/obj3d/juniperU4_NT/maps/"
                                                      },
                                                      {
                                                            "objPath": "/output/resource/obj3d/juniperU10_NT/juniperU10_NT.obj",
                                                            "mapPath": "/output/resource/obj3d/juniperU10_NT/maps/"
                                                      },
                                                      {
                                                            "objPath": "/output/resource/obj3d/juniperU20_NT/juniperU20_NT.obj",
                                                            "mapPath": "/output/resource/obj3d/juniperU20_NT/maps/"
                                                      }
                                                ],
                                                "etc":[
                                                      {
                                                            "objPath": "/output/resource/obj3d/etcU1_SV/etcU1_SV.obj",
                                                            "mapPath": "/output/resource/obj3d/etcU1_SV/maps/"
                                                      },
                                                      {
                                                            "objPath": "/output/resource/obj3d/etcU2_SV/etcU2_SV.obj",
                                                            "mapPath": "/output/resource/obj3d/etcU2_SV/maps/"
                                                      },
                                                      {
                                                            "objPath": "/output/resource/obj3d/etcU4_SV/etcU4_SV.obj",
                                                            "mapPath": "/output/resource/obj3d/etcU4_SV/maps/"
                                                      },
                                                      {
                                                            "objPath": "/output/resource/obj3d/etcU10_SV/etcU10_SV.obj",
                                                            "mapPath": "/output/resource/obj3d/etcU10_SV/maps/"
                                                      },
                                                      {
                                                            "objPath": "/output/resource/obj3d/etcU20_SV/etcU20_SV.obj",
                                                            "mapPath": "/output/resource/obj3d/etcU20_SV/maps/"
                                                      }
                                                ]
                                          }
                                    }
                              }
                        }
                  }
            },
            {
                  "label": "assetRack2",
                  "asset_type": "HTDL2",
                  "name": "AssetBaseComponent",
                  "show": true,
                  "initProperties": {
                        "props": {
                              "setter": {
                                    "popupId": "Server_popup",
                                    "size": {
                                          "x": 1,
                                          "y": 1,
                                          "z": 1
                                    },
                                    "resource": {
                                          "objPath": "/output/resource/obj3d/ciscoRack_RK/ciscoRack_RK.obj",
                                          "mapPath": "/output/resource/obj3d/ciscoRack_RK/maps/"
                                    }
                              }
                        }
                  }
            },
            {
                  "label": "assetRack3",
                  "asset_type": "HDSST",
                  "name": "AssetBaseComponent",
                  "show": true,
                  "initProperties": {
                        "props": {
                              "setter": {
                                    "popupId": "Server_popup",
                                    "size": {
                                          "x": 1,
                                          "y": 1,
                                          "z": 1
                                    },
                                    "resource": {
                                          "objPath": "/output/resource/obj3d/emcRack_RK/emcRack_RK.obj",
                                          "mapPath": "/output/resource/obj3d/emcRack_RK/maps/"
                                    }
                              }
                        }
                  }
            },
            {
                  "label": "assetRack4",
                  "name": "AssetBaseComponent",
                  "asset_type": "HBDVB",
                  "show": true,
                  "initProperties": {
                        "props": {
                              "setter": {
                                    "popupId": "Server_popup",
                                    "size": {
                                          "x": 1,
                                          "y": 1,
                                          "z": 1
                                    },
                                    "resource": {
                                          "objPath": "/output/resource/obj3d/oraclesunRack_RK/oraclesunRack_RK.obj",
                                          "mapPath": "/output/resource/obj3d/oraclesunRack_RK/maps/"
                                    }
                              }
                        }
                  }
            },
            {
                  "label": "assetRack5",
                  "name": "AssetBaseComponent",
                  "asset_type": "HSVUX",
                  "show": true,
                  "initProperties": {
                        "props": {
                              "setter": {
                                    "popupId": "Server_popup",
                                    "size": {
                                          "x": 1,
                                          "y": 1,
                                          "z": 1
                                    },
                                    "resource": {
                                          "objPath": "/output/resource/obj3d/hpRack_RK/hpRack_RK.obj",
                                          "mapPath": "/output/resource/obj3d/hpRack_RK/maps/"
                                    }
                              }
                        }
                  }
            },
            {
                  "label": "assetRack6",
                  "name": "AssetBaseComponent",
                  "asset_type": "HDS00",
                  "show": true,
                  "initProperties": {
                        "props": {
                              "setter": {
                                    "popupId": "Server_popup",
                                    "size": {
                                          "x": 1,
                                          "y": 1,
                                          "z": 1
                                    },
                                    "resource": {
                                          "objPath": "/output/resource/obj3d/juniperRack_RK/juniperRack_RK.obj",
                                          "mapPath": "/output/resource/obj3d/juniperRack_RK/maps/"
                                    }
                              }
                        }
                  }
            },
            {
                  "label": "assetRack7",
                  "name": "AssetBaseComponent",
                  "asset_type": "HCD00",
                  "show": true,
                  "initProperties": {
                        "props": {
                              "setter": {
                                    "popupId": "Server_popup",
                                    "size": {
                                          "x": 1,
                                          "y": 1,
                                          "z": 1
                                    },
                                    "resource": {
                                          "objPath": "/output/resource/obj3d/etcRack_RK/etcRack_RK.obj",
                                          "mapPath": "/output/resource/obj3d/etcRack_RK/maps/"
                                    }
                              }
                        }
                  }
            }
      ]
}
