# 3ds Max Wavefront OBJ Exporter v0.97b - (c)2007 guruware
# File Created: 31.05.2018 15:01:01

# mtllib hpU20_SV.mtl

#
# object hpServer20u
#

v  -2.4000 0.0000 3.5000
v  -2.4000 0.0000 -3.5000
v  2.4000 0.0000 -3.5000
v  2.4000 0.0000 3.5000
v  -2.4000 9.0000 3.5000
v  2.4000 9.0000 3.5000
v  2.4000 9.0000 -3.5000
v  -2.4000 9.0000 -3.5000
# 8 vertices

vn 0.0000 -1.0000 -0.0000
vn 0.0000 1.0000 -0.0000
vn 0.0000 0.0000 1.0000
vn 1.0000 0.0000 -0.0000
vn 0.0000 0.0000 -1.0000
vn -1.0000 0.0000 -0.0000
# 6 vertex normals

vt 0.9939 0.2218 0.0000
vt 0.9939 0.4920 0.0000
vt 0.8087 0.4920 0.0000
vt 0.8087 0.2218 0.0000
vt 0.0115 0.0098 0.0000
vt 0.5342 0.0098 0.0000
vt 0.5342 0.9898 0.0000
vt 0.0115 0.9898 0.0000
vt 0.5448 0.5070 0.0000
vt 0.9203 0.5070 0.0000
vt 0.9203 0.9898 0.0000
vt 0.5448 0.9898 0.0000
vt 0.5448 0.0092 0.0000
vt 0.8022 0.0092 0.0000
vt 0.8022 0.4920 0.0000
vt 0.5448 0.4920 0.0000
# 16 texture coords

g hpServer20u
usemtl _oraclesunU10_SVwire_228184153
s 2
f 1/1/1 2/2/1 3/3/1 
f 3/3/1 4/4/1 1/1/1 
s 4
f 5/4/2 6/1/2 7/2/2 
f 7/2/2 8/3/2 5/4/2 
s 8
f 1/5/3 4/6/3 6/7/3 
f 6/7/3 5/8/3 1/5/3 
s 16
f 4/9/4 3/10/4 7/11/4 
f 7/11/4 6/12/4 4/9/4 
s 32
f 3/13/5 2/14/5 8/15/5 
f 8/15/5 7/16/5 3/13/5 
s 64
f 2/10/6 1/9/6 5/12/6 
f 5/12/6 8/11/6 2/10/6 
# 0 polygons - 12 triangles

