{
    "width": 116,
    "height": 56,
    "default": "critical",

    "data": {
        "critical": {
            "type": "motion",
            "motionOptions": {
                "totalFrames": 180,
                "columns": 8
            }
        },
        "normal": {
        },
        "major": {
        },
        "minor": {
        },
        "warning": {
        }
    }
}
