{
    "width": 254,
    "height": 245,
    "default": "critical",

    "data": {
        "critical": {
            "type": "motion",
            "motionOptions": {
                "totalFrames": 108,
                "columns": 8
            }
        },
        "normal": {
            "type": "motion",
            "motionOptions": {
                "totalFrames": 108,
                "columns": 8
            }
        },
        "major": {
            "type": "motion",
            "motionOptions": {
                "totalFrames": 108,
                "columns": 8
            }
        },
        "minor": {
            "type": "motion",
            "motionOptions": {
                "totalFrames": 108,
                "columns": 8
            }
        },
        "warning": {
            "type": "motion",
            "motionOptions": {
                "totalFrames": 108,
                "columns": 8
            }
        }
    }
}