
<svg xmlns="http://www.w3.org/2000/svg" version="1.1" xmlns:xlink="http://www.w3.org/1999/xlink" preserveAspectRatio="none" x="0px" y="0px" width="52px" height="52px" viewBox="0 0 52 52">
<g>
<path stroke="none" d="
M 34.95 14.2
Q 34.7 13.9 34.4 14.1
L 20 14.1
Q 19.8 14.1 19.65 14.2
L 17.05 16.9
Q 16.95 17 16.95 17.2
L 16.95 37.9
Q 16.95 38.4 17.4 38.4
L 32.1 38.4
Q 32.25 38.4 32.4 38.2
L 35 35.9
Q 35.1 35.75 35.1 35.6
L 35.1 14.55
Q 35.1 14.3 34.95 14.2
M 32.55 17.4
L 33.35 16.6 33.35 35 32.55 35.9 32.55 17.4
M 18.65 36.6
L 18.65 17.75 30.65 17.75 30.65 36.6 18.65 36.6
M 29.9 25.75
Q 29.9 25.35 29.5 25.35
L 24.2 25.35
Q 23.8 25.4 23.8 25.7 23.8 26.1 24.2 26.2
L 29.5 26.2
Q 29.9 26.2 29.9 25.75
M 28.2 27.55
Q 28.2 27.1 27.8 27.1
L 24.2 27.1
Q 23.8 27.1 23.8 27.5 23.8 27.95 24.2 27.95
L 27.8 27.95
Q 28.2 27.95 28.2 27.55
M 24.2 23.65
Q 23.8 23.65 23.8 24.05 23.8 24.45 24.2 24.45
L 27.8 24.45
Q 28.2 24.45 28.2 24.1 28.2 23.65 27.8 23.65
L 24.2 23.65
M 22.1 21
Q 21.75 21 21.5 21.25 21.25 21.55 21.25 21.9
L 21.25 28.95
Q 20.7 29.15 20.3 29.55 19.5 30.3 19.5 31.4 19.5 32.45 20.3 33.25 21 34 22.1 34 23.2 34 23.9 33.25 24.7 32.45 24.7 31.4 24.7 30.3 23.9 29.55 23.5 29.15 22.95 28.95
L 22.95 21.9
Q 22.95 21.55 22.7 21.25 22.45 21 22.1 21 Z"/>
</g>
</svg>
