[
      {
            "name": "EWPPanel",
            "type": "plugin",
            "instanceName": "spanel",
            "file_name": "custom/packs/posod_ewp/panels/EWPPanel.es5.js",
            "dependencies": {
                  "libs": [{
                        "file_name": "custom/packs/posod_ewp/libs/xlsx.full.min.js",
                        "mode": "editor"
                  },{
                        "file_name": "custom/packs/posod_ewp/libs/shim.js",
                        "mode": "editor"
                  }]
            }
      }
]
