{
    "width": 830,
    "height": 28,
    "default": "normal",

    "data": {
        "critical": {
            "type": "motion",
            "motionOptions": {
                "totalFrames": 345,
                "columns": 4
            }
        },
        "normal": {
            "type": "motion",
            "motionOptions": {
                "totalFrames": 44,
                "columns": 1
            }
        },
        "major": {
            "type": "motion",
            "motionOptions": {
                "totalFrames": 193,
                "columns": 2
            }
        },
        "minor": {
            "type": "motion",
            "motionOptions": {
                "totalFrames": 150,
                "columns": 2
            }
        },
        "warning": {
            "type": "motion",
            "motionOptions": {
                "totalFrames": 78,
                "columns": 2
            }
        }
    }
}