{
    "width": 73,
    "height": 73,
    "default": "critical",

    "data": {
        "critical": {
            "type": "motion",
            "motionOptions": {
                "totalFrames": 30,
                "columns": 7
            }
        },
        "normal": {
        },
        "major": {
        },
        "minor": {
        },
        "warning": {
        }
    }
}
