# 3ds Max Wavefront OBJ Exporter v0.97b - (c)2007 guruware
# File Created: 30.09.2016 14:30:53

newmtl wire_177027088
	Ns 32
	d 1
	Tr 0
	Tf 1 1 1
	illum 2
	Ka 0.6941 0.1059 0.3451
	Kd 0.6941 0.1059 0.3451
	Ks 0.3500 0.3500 0.3500
