{
      "two_layer": [
            {
                  "label": "Basic Pack",
                  "children": [
                        {
                              "id": "Frame",
                              "label": "Frame",
                              "name": "FrameComponent",
                              "show": true,
                              "initProperties": {
                                    "props": {
                                          "setter": {
                                                "width": 200,
                                                "height": 200
                                          }
                                    }
                              }
                        },
                        {
                              "id": "Text",
                              "label": "Text",
                              "name": "TextComponent",
                              "show": true
                        },
                        {
                              "id": "Text Editor",
                              "label": "Text Editor",
                              "name": "TextEditorComponent",
                              "show": true
                        },
                        {
                              "id": "Bg Layer Label",
                              "label": "Bg Layer Label",
                              "name": "BgLayerLabelComponent",
                              "show": true
                        },
                        {
                              "id": "Dynamic Number",
                              "label": "Dynamic Number",
                              "name": "DynamicNumberComponent",
                              "show": true
                        },
                        {
                              "id": "Image Loader",
                              "label": "Image Loader",
                              "name": "ImageLoaderComponent",
                              "show": true
                        },
                        {
                              "id": "Image Button",
                              "label": "Image Btn",
                              "name": "ImageButtonComponent",
                              "show": true
                        },
                        {
                              "id": "Digital Clock",
                              "label": "Digital Clock",
                              "name": "DigitalClockComponent",
                              "show": true
                        },
                        {
                              "id": "Data Grid",
                              "label": "Data Grid",
                              "name": "BasicGridComponent",
                              "show": true
                        },
                        {
                              "id": "BulletLabel",
                              "label": "Bullet Label",
                              "name": "BulletLabelComponent",
                              "show": true
                        },
                        {
                              "id": "Btn Group",
                              "label": "Btn Group",
                              "name": "GroupButtonComponent",
                              "show": true
                        },
                        {
                              "id": "Active Group Btn",
                              "label": "Active Group Btn",
                              "name": "ActiveGroupButtonComponent",
                              "show": true
                        },
                        {
                              "id": "Template",
                              "label": "Template",
                              "name": "TemplateComponent",
                              "show": true
                        },
                        {
                              "id": "Page",
                              "label": "Page",
                              "name": "PageComponent",
                              "show": true,
                              "preview_path": "custom/packs/sk_pack/components/basic/PageComponent/preview.png"
                        },
                        {
                              "id": "RollingPage",
                              "label": "Rolling Page",
                              "name": "RollingPageComponent",
                              "show": true,
                              "preview_path": "custom/packs/sk_pack/components/basic/RollingPageComponent/preview.png"
                        },
                        {
                              "id": "Ticker",
                              "label": "Ticker",
                              "name": "TickerComponent",
                              "show": true
                        },
                        {
                              "id": "event browser",
                              "label": "Event Browser",
                              "name": "EventBrowserComponent",
                              "show": true
                        },
                        {
                              "id": "IFrame",
                              "label": "Iframe",
                              "name": "IFrameComponent",
                              "show": true
                        },
                        {
                              "id": "Pagination",
                              "label": "Pagination",
                              "name": "PaginationComponent",
                              "show": true
                        },
                        {
                              "id": "Up/Down Status",
                              "label": "Up/Down Status",
                              "name": "UpDownStatusComponent",
                              "show": true
                        }
                  ]
            },
            {
                  "label": "Network Pack",
                  "children": [
                        {
                              "id": "HorizontalPort",
                              "label": "Horizontal Port",
                              "name": "HorizontalPortComponent",
                              "preview_path": "custom/packs/sk_pack/components/HorizontalPortComponent/preview.png",
                              "show": true,
                              "initProperties": {
                                    "props": {
                                          "setter": {
                                                "width": 120,
                                                "height": 86
                                          }
                                    }
                              }
                        },
                        {
                              "id": "NetworkLink",
                              "label": "Network Link",
                              "name": "NetworkLinkComponent",
                              "show": true,
                              "initProperties": {
                                    "props": {
                                          "setter": {
                                                "width": 50,
                                                "height": 50
                                          }
                                    }
                              }
                        },
                        {
                              "id": "VerticalPort",
                              "label": "Vertical Port",
                              "name": "VerticalPortComponent",
                              "preview_path": "custom/packs/sk_pack/components/VerticalPortComponent/preview.png",
                              "show": true,
                              "initProperties": {
                                    "props": {
                                          "setter": {
                                                "width": 60,
                                                "height": 86
                                          }
                                    }
                              }
                        },
                        {
                              "id": "L2SingleLink",
                              "label": "L2 Single Link",
                              "name": "NetworkStateComponent",
                              "preview_path": "custom/packs/sk_pack/components/NetworkLinkComponent/preview/Switch01Single/preview.png",
                              "show": true,
                              "initProperties": {
                                    "group_key": "SingleL2Link",
                                    "props": {
                                          "setter": {
                                                "width": 55,
                                                "height": 55
                                          }
                                    }
                              }
                        },
                        {
                              "id": "L2DualLink",
                              "label": "L2 Dual Link",
                              "name": "NetworkStateComponent",
                              "preview_path": "custom/packs/sk_pack/components/NetworkLinkComponent/preview/Switch01Dual/preview.png",
                              "show": true,
                              "initProperties": {
                                    "group_key": "DualL2Link",
                                    "props": {
                                          "setter": {
                                                "width": 55,
                                                "height": 55
                                          }
                                    }
                              }
                        },
                        {
                              "id": "L3SingleLink",
                              "label": "L3 Single Link",
                              "name": "NetworkStateComponent",
                              "preview_path": "custom/packs/sk_pack/components/NetworkLinkComponent/preview/Switch02Single/preview.png",
                              "show": true,
                              "initProperties": {
                                    "group_key": "SingleL3Link",
                                    "props": {
                                          "setter": {
                                                "width": 55,
                                                "height": 55
                                          }
                                    }
                              }
                        },
                        {
                              "id": "L3DualLink",
                              "label": "L3 Dual Link",
                              "name": "NetworkStateComponent",
                              "preview_path": "custom/packs/sk_pack/components/NetworkLinkComponent/preview/Switch02Dual/preview.png",
                              "show": true,
                              "initProperties": {
                                    "group_key": "DualL3Link",
                                    "props": {
                                          "setter": {
                                                "width": 55,
                                                "height": 55
                                          }
                                    }
                              }
                        },
                        {
                              "id": "2TireL2LinkSquare",
                              "label": "2Tire L2 Link Square",
                              "name": "NetworkStateComponent",
                              "preview_path": "custom/packs/sk_pack/components/NetworkLinkComponent/preview/Switch01Square/preview.png",
                              "show": true,
                              "initProperties": {
                                    "group_key": "2TierL2LinkSquare",
                                    "props": {
                                          "setter": {
                                                "width": 55,
                                                "height": 55
                                          }
                                    }
                              }
                        },
                        {
                              "id": "2TireL2LinkMesh",
                              "label": "2Tire L2 Link Mesh",
                              "name": "NetworkStateComponent",
                              "preview_path": "custom/packs/sk_pack/components/NetworkLinkComponent/preview/Switch01Mesh/preview.png",
                              "show": true,
                              "initProperties": {
                                    "group_key": "2TierL2LinkMesh",
                                    "props": {
                                          "setter": {
                                                "width": 55,
                                                "height": 55
                                          }
                                    }
                              }
                        },
                        {
                              "id": "2TireL3LinkSquare",
                              "label": "2Tire L3 Link Square",
                              "name": "NetworkStateComponent",
                              "preview_path": "custom/packs/sk_pack/components/NetworkLinkComponent/preview/Switch02Square/preview.png",
                              "show": true,
                              "initProperties": {
                                    "group_key": "2TierL3LinkSquare",
                                    "props": {
                                          "setter": {
                                                "width": 55,
                                                "height": 55
                                          }
                                    }
                              }
                        },
                        {
                              "id": "2TireL3LinkMesh",
                              "label": "2Tire L3 Link Mesh",
                              "name": "NetworkStateComponent",
                              "preview_path": "custom/packs/sk_pack/components/NetworkLinkComponent/preview/Switch02Mesh/preview.png",
                              "show": true,
                              "initProperties": {
                                    "group_key": "2TierL3LinkMesh",
                                    "props": {
                                          "setter": {
                                                "width": 55,
                                                "height": 55
                                          }
                                    }
                              }
                        },
                        {
                              "id": "Backbone",
                              "label": "Backbone",
                              "name": "NetworkStateComponent",
                              "preview_path": "custom/packs/sk_pack/components/NetworkStateComponent/state/NetworkFlat009/preview.png",
                              "show": true,
                              "initProperties": {
                                    "props": {
                                          "router_component": true,
                                          "setter": {
                                                "info": {
                                                      "name": "NetworkFlat009",
                                                      "path": "/custom/packs/sk_pack/components/NetworkStateComponent/state/NetworkFlat009/res/"
                                                },
                                                "width": 60,
                                                "height": 86
                                          }
                                    }
                              }
                        },
                        {
                              "id": "Switch",
                              "label": "Switch",
                              "name": "NetworkStateComponent",
                              "preview_path": "custom/packs/sk_pack/components/NetworkStateComponent/state/NetworkFlat005/preview.png",
                              "show": true,
                              "initProperties": {
                                    "props": {
                                          "setter": {
                                                "info": {
                                                      "name": "NetworkFlat005",
                                                      "path": "/custom/packs/sk_pack/components/NetworkStateComponent/state/NetworkFlat005/res/"
                                                },
                                                "width": 90,
                                                "height": 44
                                          }
                                    }
                              }
                        },
                        {
                              "id": "Router",
                              "label": "Router",
                              "name": "NetworkStateComponent",
                              "preview_path": "custom/packs/sk_pack/components/NetworkStateComponent/state/RouterFlat001/preview.png",
                              "show": true,
                              "initProperties": {
                                    "props": {
                                          "setter": {
                                                "info": {
                                                      "name": "RouterFlat001",
                                                      "path": "/custom/packs/sk_pack/components/NetworkStateComponent/state/RouterFlat001/res/"
                                                },
                                                "width": 64,
                                                "height": 46
                                          }
                                    }
                              }
                        },
                        {
                              "id": "Firewall",
                              "label": "Firewall",
                              "name": "NetworkStateComponent",
                              "preview_path": "custom/packs/sk_pack/components/NetworkStateComponent/state/FirewallFlat001/preview.png",
                              "show": true,
                              "initProperties": {
                                    "props": {
                                          "setter": {
                                                "info": {
                                                      "name": "FirewallFlat001",
                                                      "path": "/custom/packs/sk_pack/components/NetworkStateComponent/state/FirewallFlat001/res/"
                                                },
                                                "width": 60,
                                                "height": 54
                                          }
                                    }
                              }
                        },
                        {
                              "id": "Server",
                              "label": "Server",
                              "name": "NetworkStateComponent",
                              "preview_path": "custom/packs/sk_pack/components/NetworkStateComponent/state/ServerFlat001/res/preview.png",
                              "show": true,
                              "initProperties": {
                                    "props": {
                                          "setter": {
                                                "info": {
                                                      "name": "ServerFlat001",
                                                      "path": "/custom/packs/sk_pack/components/NetworkStateComponent/state/ServerFlat001/res/"
                                                },
                                                "width": 60,
                                                "height": 86
                                          }
                                    }
                              }
                        },
                        {
                              "id": "Building",
                              "label": "Building",
                              "name": "NetworkStateComponent",
                              "preview_path": "custom/packs/sk_pack/components/NetworkStateComponent/state/BuildingFlat/preview.png",
                              "show": true,
                              "initProperties": {
                                    "props": {
                                          "setter": {
                                                "info": {
                                                      "name": "BuildingFlat",
                                                      "path": "/custom/packs/sk_pack/components/NetworkStateComponent/state/BuildingFlat/res/"
                                                },
                                                "width": 60,
                                                "height": 50
                                          }
                                    }
                              }
                        },
                        {
                              "id": "Switch01",
                              "label": "Switch01",
                              "name": "NetworkStateComponent",
                              "preview_path": "custom/packs/sk_pack/components/NetworkStateComponent/state/NetworkFlat001/preview.png",
                              "show": true,
                              "initProperties": {
                                    "props": {
                                          "router_component": true,
                                          "setter": {
                                                "info": {
                                                      "name": "NetworkFlat001",
                                                      "path": "/custom/packs/sk_pack/components/NetworkStateComponent/state/NetworkFlat001/res/"
                                                },
                                                "width": 55,
                                                "height": 55
                                          }
                                    }
                              }
                        },
                        {
                              "id": "Switch02",
                              "label": "Switch02",
                              "name": "NetworkStateComponent",
                              "preview_path": "custom/packs/sk_pack/components/NetworkStateComponent/state/NetworkFlat002/preview.png",
                              "show": true,
                              "initProperties": {
                                    "props": {
                                          "router_component": true,
                                          "setter": {
                                                "info": {
                                                      "name": "NetworkFlat002",
                                                      "path": "/custom/packs/sk_pack/components/NetworkStateComponent/state/NetworkFlat002/res/"
                                                },
                                                "width": 60,
                                                "height": 45
                                          }
                                    }
                              }
                        },
                        {
                              "id": "Switch03",
                              "label": "Switch03",
                              "name": "NetworkStateComponent",
                              "preview_path": "custom/packs/sk_pack/components/NetworkStateComponent/state/NetworkFlat003/preview.png",
                              "show": true,
                              "initProperties": {
                                    "props": {
                                          "setter": {
                                                "info": {
                                                      "name": "NetworkFlat003",
                                                      "path": "/custom/packs/sk_pack/components/NetworkStateComponent/state/NetworkFlat003/res/"
                                                },
                                                "width": 60,
                                                "height": 45
                                          }
                                    }
                              }
                        },
                        {
                              "id": "Switch04",
                              "label": "Switch04",
                              "name": "NetworkStateComponent",
                              "preview_path": "custom/packs/sk_pack/components/NetworkStateComponent/state/NetworkFlat004/preview.png",
                              "show": true,
                              "initProperties": {
                                    "props": {
                                          "setter": {
                                                "info": {
                                                      "name": "NetworkFlat004",
                                                      "path": "/custom/packs/sk_pack/components/NetworkStateComponent/state/NetworkFlat004/res/"
                                                },
                                                "width": 60,
                                                "height": 52
                                          }
                                    }
                              }
                        },
                        {
                              "id": "Switch05",
                              "label": "Switch05",
                              "name": "NetworkStateComponent",
                              "preview_path": "custom/packs/sk_pack/components/NetworkStateComponent/state/NetworkFlat006/preview.png",
                              "show": true,
                              "initProperties": {
                                    "props": {
                                          "setter": {
                                                "info": {
                                                      "name": "NetworkFlat006",
                                                      "path": "/custom/packs/sk_pack/components/NetworkStateComponent/state/NetworkFlat006/res/"
                                                },
                                                "width": 60,
                                                "height": 86
                                          }
                                    }
                              }
                        },
                        {
                              "id": "Switch06",
                              "label": "Switch06",
                              "name": "NetworkStateComponent",
                              "preview_path": "custom/packs/sk_pack/components/NetworkStateComponent/state/NetworkFlat007/preview.png",
                              "show": true,
                              "initProperties": {
                                    "props": {
                                          "setter": {
                                                "info": {
                                                      "name": "NetworkFlat007",
                                                      "path": "/custom/packs/sk_pack/components/NetworkStateComponent/state/NetworkFlat007/res/"
                                                },
                                                "width": 60,
                                                "height": 86
                                          }
                                    }
                              }
                        },
                        {
                              "id": "Switch07",
                              "label": "Switch07",
                              "name": "NetworkStateComponent",
                              "preview_path": "custom/packs/sk_pack/components/NetworkStateComponent/state/NetworkFlat008/preview.png",
                              "show": true,
                              "initProperties": {
                                    "props": {
                                          "setter": {
                                                "info": {
                                                      "name": "NetworkFlat008",
                                                      "path": "/custom/packs/sk_pack/components/NetworkStateComponent/state/NetworkFlat008/res/"
                                                },
                                                "width": 60,
                                                "height": 86
                                          }
                                    }
                              }
                        }
                  ]
            },
            {
                  "label": "Line Pack",
                  "children": [
                        {
                              "id": "SVG Line",
                              "label": "Line",
                              "name": "SVGLineComponent",
                              "show": true,
                              "initProperties": {
                                    "props": {
                                          "setter": {
                                                "width": 100,
                                                "height": 100
                                          }
                                    }
                              }
                        },
                        {
                              "id": "Broken Line",
                              "label": "Polygonal Line",
                              "name": "SVGBrokenLineComponent",
                              "show": true,
                              "initProperties": {
                                    "props": {
                                          "setter": {
                                                "x": 100,
                                                "y": 100,
                                                "width": 100,
                                                "height": 100
                                          }
                                    }
                              }
                        },
                        {
                              "id": "Curve",
                              "label": "Curve",
                              "name": "SVGCurveComponent",
                              "show": true,
                              "initProperties": {
                                    "props": {
                                          "setter": {
                                                "x": 100,
                                                "y": 100,
                                                "width": 100,
                                                "height": 100
                                          }
                                    }
                              }
                        },
                        {
                              "id": "Stream Line",
                              "label": "Stream Line",
                              "name": "SVGStreamLineComponent",
                              "show": true,
                              "initProperties": {
                                    "props": {
                                          "setter": {
                                                "width": 100,
                                                "height": 100
                                          }
                                    }
                              }
                        },
                        {
                              "id": "Stream Broken",
                              "label": "Stream Broken",
                              "name": "SVGStreamBrokenComponent",
                              "show": true,
                              "initProperties": {
                                    "props": {
                                          "setter": {
                                                "width": 100,
                                                "height": 100
                                          }
                                    }
                              }
                        },
                        {
                              "id": "Stream Curve",
                              "label": "Stream Curve",
                              "name": "SVGStreamCurveComponent",
                              "show": true,
                              "initProperties": {
                                    "props": {
                                          "setter": {
                                                "width": 100,
                                                "height": 100
                                          }
                                    }
                              }
                        },
                        {
                              "id": "Circle",
                              "label": "Circle",
                              "name": "SVGCircleComponent",
                              "show": true,
                              "initProperties": {
                                    "props": {
                                          "setter": {
                                                "x": 100,
                                                "y": 100,
                                                "width": 100,
                                                "height": 100
                                          }
                                    }
                              }
                        },
                        {
                              "id": "Circle",
                              "label": "Rectangle",
                              "name": "SVGRectComponent",
                              "show": true,
                              "initProperties": {
                                    "props": {
                                          "setter": {
                                                "width": 100,
                                                "height": 100
                                          }
                                    }
                              }
                        }
                  ]
            }
      ]
}
