# 3ds Max Wavefront OBJ Exporter v0.97b - (c)2007 guruware
# File Created: 08.06.2018 13:20:24

# mtllib fireSensor_FS.mtl

#
# object fireSensor
#

v  -0.8000 0.3800 -0.0000
v  -0.7518 0.3800 -0.2736
v  -0.6977 -0.0998 -0.2540
v  -0.7425 -0.0998 -0.0000
v  -0.6128 0.3800 -0.5142
v  -0.5688 -0.0998 -0.4773
v  -0.4000 0.3800 -0.6928
v  -0.3713 -0.0998 -0.6430
v  -0.1389 0.3800 -0.7878
v  -0.1289 -0.0998 -0.7312
v  0.1389 0.3800 -0.7878
v  0.1289 -0.0998 -0.7312
v  0.4000 0.3800 -0.6928
v  0.3713 -0.0998 -0.6430
v  0.6128 0.3800 -0.5142
v  0.5688 -0.0998 -0.4773
v  0.7518 0.3800 -0.2736
v  0.6977 -0.0998 -0.2540
v  0.8000 0.3800 -0.0000
v  0.7425 -0.0998 -0.0000
v  0.7518 0.3800 0.2736
v  0.6977 -0.0998 0.2540
v  0.6128 0.3800 0.5142
v  0.5688 -0.0998 0.4773
v  0.4000 0.3800 0.6928
v  0.3713 -0.0998 0.6430
v  0.1389 0.3800 0.7878
v  0.1289 -0.0998 0.7312
v  -0.1389 0.3800 0.7878
v  -0.1289 -0.0998 0.7312
v  -0.4000 0.3800 0.6928
v  -0.3713 -0.0998 0.6430
v  -0.6128 0.3800 0.5142
v  -0.5688 -0.0998 0.4773
v  -0.7518 0.3800 0.2736
v  -0.6977 -0.0998 0.2540
v  -0.4382 -0.3800 -0.1595
v  -0.3572 -0.3800 -0.2997
v  -0.2331 -0.3800 -0.4038
v  -0.0810 -0.3800 -0.4592
v  0.0810 -0.3800 -0.4592
v  0.2331 -0.3800 -0.4038
v  0.3572 -0.3800 -0.2997
v  0.4382 -0.3800 -0.1595
v  0.4663 -0.3800 -0.0000
v  0.4382 -0.3800 0.1595
v  0.3572 -0.3800 0.2997
v  0.2331 -0.3800 0.4038
v  0.0810 -0.3800 0.4592
v  -0.0810 -0.3800 0.4592
v  -0.2331 -0.3800 0.4038
v  -0.3572 -0.3800 0.2997
v  -0.4382 -0.3800 0.1595
v  -0.4663 -0.3800 -0.0000
v  -0.5145 -0.1301 -0.1873
v  -0.5475 -0.1301 -0.0000
v  -0.4194 -0.1301 -0.3519
v  -0.2737 -0.1301 -0.4741
v  -0.0951 -0.1301 -0.5392
v  0.0951 -0.1301 -0.5392
v  0.2737 -0.1301 -0.4741
v  0.4194 -0.1301 -0.3519
v  0.5145 -0.1301 -0.1873
v  0.5475 -0.1301 -0.0000
v  0.5145 -0.1301 0.1873
v  0.4194 -0.1301 0.3519
v  0.2737 -0.1301 0.4741
v  0.0951 -0.1301 0.5392
v  -0.0951 -0.1301 0.5392
v  -0.2737 -0.1301 0.4741
v  -0.4194 -0.1301 0.3519
v  -0.5145 -0.1301 0.1873
# 72 vertices

vn -0.9929 -0.1189 -0.0000
vn -0.9330 -0.1189 -0.3396
vn -0.7606 -0.1189 -0.6382
vn -0.4965 -0.1189 -0.8599
vn -0.1724 -0.1189 -0.9778
vn 0.1724 -0.1189 -0.9778
vn 0.4965 -0.1189 -0.8599
vn 0.7606 -0.1189 -0.6382
vn 0.9330 -0.1189 -0.3396
vn 0.9929 -0.1189 -0.0000
vn 0.9330 -0.1189 0.3396
vn 0.7606 -0.1189 0.6382
vn 0.4965 -0.1189 0.8599
vn 0.1724 -0.1189 0.9778
vn -0.1724 -0.1189 0.9778
vn -0.4965 -0.1189 0.8599
vn -0.4964 -0.1189 0.8599
vn -0.7606 -0.1189 0.6382
vn -0.9330 -0.1189 0.3396
vn 0.0000 1.0000 -0.0000
vn 0.0000 -1.0000 -0.0000
vn -0.1539 -0.9877 -0.0271
vn -0.1353 -0.9877 -0.0781
vn -0.1005 -0.9877 -0.1197
vn -0.0534 -0.9877 -0.1469
vn 0.0000 -0.9877 -0.1563
vn 0.0534 -0.9877 -0.1469
vn 0.1005 -0.9877 -0.1197
vn 0.1353 -0.9877 -0.0781
vn 0.1539 -0.9877 -0.0271
vn 0.1539 -0.9877 0.0271
vn 0.1353 -0.9877 0.0781
vn 0.1005 -0.9877 0.1197
vn 0.0534 -0.9877 0.1469
vn 0.0000 -0.9877 0.1563
vn -0.0534 -0.9877 0.1469
vn -0.1005 -0.9877 0.1197
vn -0.1353 -0.9877 0.0781
vn -0.1539 -0.9877 0.0271
vn -0.9379 -0.3048 -0.1654
vn -0.8248 -0.3048 -0.4762
vn -0.6122 -0.3048 -0.7296
vn -0.3257 -0.3048 -0.8950
vn 0.0000 -0.3048 -0.9524
vn 0.3257 -0.3048 -0.8950
vn 0.6122 -0.3048 -0.7296
vn 0.8248 -0.3048 -0.4762
vn 0.9379 -0.3048 -0.1654
vn 0.9379 -0.3048 0.1654
vn 0.8248 -0.3048 0.4762
vn 0.6122 -0.3048 0.7296
vn 0.3257 -0.3048 0.8950
vn 0.0000 -0.3048 0.9524
vn -0.3257 -0.3048 0.8950
vn -0.6122 -0.3048 0.7296
vn -0.8248 -0.3048 0.4762
vn -0.9379 -0.3048 0.1654
# 57 vertex normals

vt 0.8261 0.4755 0.0000
vt 0.9083 0.4755 0.0000
vt 0.9024 0.6196 0.0000
vt 0.8261 0.6196 0.0000
vt 0.9805 0.4755 0.0000
vt 0.9694 0.6196 0.0000
vt 0.6126 0.6446 0.0000
vt 0.6765 0.6446 0.0000
vt 0.6851 0.7886 0.0000
vt 0.6258 0.7886 0.0000
vt 0.7548 0.6446 0.0000
vt 0.7578 0.7886 0.0000
vt 0.8382 0.6446 0.0000
vt 0.8352 0.7886 0.0000
vt 0.9166 0.6446 0.0000
vt 0.9080 0.7886 0.0000
vt 0.9805 0.6446 0.0000
vt 0.9673 0.7886 0.0000
vt 0.6718 0.3065 0.0000
vt 0.7440 0.3065 0.0000
vt 0.7499 0.4505 0.0000
vt 0.6829 0.4505 0.0000
vt 0.8261 0.3065 0.0000
vt 0.8261 0.4505 0.0000
vt 0.9083 0.3065 0.0000
vt 0.9024 0.4505 0.0000
vt 0.9805 0.3065 0.0000
vt 0.9694 0.4505 0.0000
vt 0.5781 0.8419 0.0000
vt 0.6420 0.8419 0.0000
vt 0.6506 0.9859 0.0000
vt 0.5913 0.9859 0.0000
vt 0.7203 0.8419 0.0000
vt 0.7233 0.9859 0.0000
vt 0.8037 0.8419 0.0000
vt 0.8007 0.9859 0.0000
vt 0.8821 0.8419 0.0000
vt 0.8735 0.9859 0.0000
vt 0.9460 0.8419 0.0000
vt 0.9328 0.9859 0.0000
vt 0.6718 0.4755 0.0000
vt 0.7440 0.4755 0.0000
vt 0.7499 0.6196 0.0000
vt 0.6829 0.6196 0.0000
vt 0.0454 0.8815 0.0000
vt 0.0643 0.8656 0.0000
vt 0.0875 0.8572 0.0000
vt 0.1122 0.8572 0.0000
vt 0.1354 0.8656 0.0000
vt 0.1543 0.8815 0.0000
vt 0.1666 0.9028 0.0000
vt 0.1709 0.9271 0.0000
vt 0.1666 0.9514 0.0000
vt 0.1543 0.9728 0.0000
vt 0.1354 0.9887 0.0000
vt 0.1122 0.9971 0.0000
vt 0.0875 0.9971 0.0000
vt 0.0643 0.9887 0.0000
vt 0.0454 0.9728 0.0000
vt 0.0331 0.9514 0.0000
vt 0.0288 0.9271 0.0000
vt 0.0331 0.9028 0.0000
vt 0.4414 0.9055 0.0000
vt 0.4530 0.8855 0.0000
vt 0.4707 0.8706 0.0000
vt 0.4924 0.8627 0.0000
vt 0.5156 0.8627 0.0000
vt 0.5373 0.8706 0.0000
vt 0.5550 0.8855 0.0000
vt 0.5666 0.9055 0.0000
vt 0.5706 0.9283 0.0000
vt 0.5666 0.9511 0.0000
vt 0.5550 0.9711 0.0000
vt 0.5373 0.9860 0.0000
vt 0.5156 0.9939 0.0000
vt 0.4924 0.9939 0.0000
vt 0.4707 0.9860 0.0000
vt 0.4530 0.9711 0.0000
vt 0.4414 0.9511 0.0000
vt 0.4374 0.9283 0.0000
vt 0.6906 0.1422 0.0000
vt 0.6988 0.0959 0.0000
vt 0.7323 0.1080 0.0000
vt 0.7262 0.1422 0.0000
vt 0.7223 0.0551 0.0000
vt 0.7496 0.0780 0.0000
vt 0.7584 0.0248 0.0000
vt 0.7762 0.0557 0.0000
vt 0.8027 0.0087 0.0000
vt 0.8089 0.0438 0.0000
vt 0.8498 0.0087 0.0000
vt 0.8436 0.0438 0.0000
vt 0.8940 0.0248 0.0000
vt 0.8762 0.0557 0.0000
vt 0.9301 0.0551 0.0000
vt 0.9028 0.0780 0.0000
vt 0.9537 0.0959 0.0000
vt 0.9202 0.1080 0.0000
vt 0.9618 0.1422 0.0000
vt 0.9262 0.1422 0.0000
vt 0.9537 0.1886 0.0000
vt 0.9202 0.1764 0.0000
vt 0.9301 0.2294 0.0000
vt 0.9028 0.2065 0.0000
vt 0.8940 0.2597 0.0000
vt 0.8762 0.2288 0.0000
vt 0.8498 0.2758 0.0000
vt 0.8436 0.2407 0.0000
vt 0.8027 0.2758 0.0000
vt 0.8089 0.2407 0.0000
vt 0.7584 0.2597 0.0000
vt 0.7762 0.2288 0.0000
vt 0.7223 0.2294 0.0000
vt 0.7496 0.2065 0.0000
vt 0.6988 0.1886 0.0000
vt 0.7323 0.1764 0.0000
vt 0.2852 0.6373 0.0000
vt 0.1388 0.6373 0.0000
vt 0.1605 0.4420 0.0000
vt 0.2852 0.4420 0.0000
vt 0.0100 0.6373 0.0000
vt 0.0508 0.4420 0.0000
vt 0.6659 0.2054 0.0000
vt 0.5520 0.2054 0.0000
vt 0.5203 0.0100 0.0000
vt 0.6173 0.0100 0.0000
vt 0.4123 0.2054 0.0000
vt 0.4013 0.0100 0.0000
vt 0.2636 0.2054 0.0000
vt 0.2746 0.0100 0.0000
vt 0.1239 0.2054 0.0000
vt 0.1557 0.0100 0.0000
vt 0.0100 0.2054 0.0000
vt 0.0586 0.0100 0.0000
vt 0.5604 0.8533 0.0000
vt 0.4316 0.8533 0.0000
vt 0.4099 0.6579 0.0000
vt 0.5196 0.6579 0.0000
vt 0.2852 0.8533 0.0000
vt 0.2852 0.6579 0.0000
vt 0.1388 0.8533 0.0000
vt 0.1605 0.6579 0.0000
vt 0.0100 0.8533 0.0000
vt 0.0508 0.6579 0.0000
vt 0.6659 0.4214 0.0000
vt 0.5520 0.4214 0.0000
vt 0.5203 0.2260 0.0000
vt 0.6173 0.2260 0.0000
vt 0.4123 0.4214 0.0000
vt 0.4013 0.2260 0.0000
vt 0.2636 0.4214 0.0000
vt 0.2746 0.2260 0.0000
vt 0.1239 0.4214 0.0000
vt 0.1557 0.2260 0.0000
vt 0.0100 0.4214 0.0000
vt 0.0586 0.2260 0.0000
vt 0.5604 0.6373 0.0000
vt 0.4316 0.6373 0.0000
vt 0.4099 0.4420 0.0000
vt 0.5196 0.4420 0.0000
# 160 texture coords

g fireSensor
usemtl _fireSensor_FS_common_cctv07___Default
s 8
f 1/1/1 2/2/2 3/3/2 
f 3/3/2 4/4/1 1/1/1 
f 2/2/2 5/5/3 6/6/3 
f 6/6/3 3/3/2 2/2/2 
f 5/7/3 7/8/4 8/9/4 
f 8/9/4 6/10/3 5/7/3 
f 7/8/4 9/11/5 10/12/5 
f 10/12/5 8/9/4 7/8/4 
f 9/11/5 11/13/6 12/14/6 
f 12/14/6 10/12/5 9/11/5 
f 11/13/6 13/15/7 14/16/7 
f 14/16/7 12/14/6 11/13/6 
f 13/15/7 15/17/8 16/18/8 
f 16/18/8 14/16/7 13/15/7 
f 15/19/8 17/20/9 18/21/9 
f 18/21/9 16/22/8 15/19/8 
f 17/20/9 19/23/10 20/24/10 
f 20/24/10 18/21/9 17/20/9 
f 19/23/10 21/25/11 22/26/11 
f 22/26/11 20/24/10 19/23/10 
f 21/25/11 23/27/12 24/28/12 
f 24/28/12 22/26/11 21/25/11 
f 23/29/12 25/30/13 26/31/13 
f 26/31/13 24/32/12 23/29/12 
f 25/30/13 27/33/14 28/34/14 
f 28/34/14 26/31/13 25/30/13 
f 27/33/14 29/35/15 30/36/15 
f 30/36/15 28/34/14 27/33/14 
f 29/35/15 31/37/16 32/38/17 
f 32/38/17 30/36/15 29/35/15 
f 31/37/16 33/39/18 34/40/18 
f 34/40/18 32/38/17 31/37/16 
f 33/41/18 35/42/19 36/43/19 
f 36/43/19 34/44/18 33/41/18 
f 35/42/19 1/1/1 4/4/1 
f 4/4/1 36/43/19 35/42/19 
s 1
f 33/45/20 31/46/20 29/47/20 
f 29/47/20 27/48/20 25/49/20 
f 25/49/20 23/50/20 21/51/20 
f 29/47/20 25/49/20 21/51/20 
f 21/51/20 19/52/20 17/53/20 
f 17/53/20 15/54/20 13/55/20 
f 21/51/20 17/53/20 13/55/20 
f 13/55/20 11/56/20 9/57/20 
f 9/57/20 7/58/20 5/59/20 
f 13/55/20 9/57/20 5/59/20 
f 21/51/20 13/55/20 5/59/20 
f 29/47/20 21/51/20 5/59/20 
f 5/59/20 2/60/20 1/61/20 
f 29/47/20 5/59/20 1/61/20 
f 33/45/20 29/47/20 1/61/20 
f 35/62/20 33/45/20 1/61/20 
f 37/63/21 38/64/21 39/65/21 
f 39/65/21 40/66/21 41/67/21 
f 41/67/21 42/68/21 43/69/21 
f 39/65/21 41/67/21 43/69/21 
f 43/69/21 44/70/21 45/71/21 
f 45/71/21 46/72/21 47/73/21 
f 43/69/21 45/71/21 47/73/21 
f 47/73/21 48/74/21 49/75/21 
f 49/75/21 50/76/21 51/77/21 
f 47/73/21 49/75/21 51/77/21 
f 43/69/21 47/73/21 51/77/21 
f 39/65/21 43/69/21 51/77/21 
f 51/77/21 52/78/21 53/79/21 
f 39/65/21 51/77/21 53/79/21 
f 37/63/21 39/65/21 53/79/21 
f 54/80/21 37/63/21 53/79/21 
s off
f 4/81/22 3/82/22 55/83/22 
f 55/83/22 56/84/22 4/81/22 
f 3/82/23 6/85/23 57/86/23 
f 57/86/23 55/83/23 3/82/23 
f 6/85/24 8/87/24 58/88/24 
f 58/88/24 57/86/24 6/85/24 
f 8/87/25 10/89/25 59/90/25 
f 59/90/25 58/88/25 8/87/25 
f 10/89/26 12/91/26 60/92/26 
f 60/92/26 59/90/26 10/89/26 
f 12/91/27 14/93/27 61/94/27 
f 61/94/27 60/92/27 12/91/27 
f 14/93/28 16/95/28 62/96/28 
f 62/96/28 61/94/28 14/93/28 
f 16/95/29 18/97/29 63/98/29 
f 63/98/29 62/96/29 16/95/29 
f 18/97/30 20/99/30 64/100/30 
f 64/100/30 63/98/30 18/97/30 
f 20/99/31 22/101/31 65/102/31 
f 65/102/31 64/100/31 20/99/31 
f 22/101/32 24/103/32 66/104/32 
f 66/104/32 65/102/32 22/101/32 
f 24/103/33 26/105/33 67/106/33 
f 67/106/33 66/104/33 24/103/33 
f 26/105/34 28/107/34 68/108/34 
f 68/108/34 67/106/34 26/105/34 
f 28/107/35 30/109/35 69/110/35 
f 69/110/35 68/108/35 28/107/35 
f 30/109/36 32/111/36 70/112/36 
f 70/112/36 69/110/36 30/109/36 
f 32/111/37 34/113/37 71/114/37 
f 71/114/37 70/112/37 32/111/37 
f 34/113/38 36/115/38 72/116/38 
f 72/116/38 71/114/38 34/113/38 
f 36/115/39 4/81/39 56/84/39 
f 56/84/39 72/116/39 36/115/39 
f 56/117/40 55/118/40 37/119/40 
f 37/119/40 54/120/40 56/117/40 
f 55/118/41 57/121/41 38/122/41 
f 38/122/41 37/119/41 55/118/41 
f 57/123/42 58/124/42 39/125/42 
f 39/125/42 38/126/42 57/123/42 
f 58/124/43 59/127/43 40/128/43 
f 40/128/43 39/125/43 58/124/43 
f 59/127/44 60/129/44 41/130/44 
f 41/130/44 40/128/44 59/127/44 
f 60/129/45 61/131/45 42/132/45 
f 42/132/45 41/130/45 60/129/45 
f 61/131/46 62/133/46 43/134/46 
f 43/134/46 42/132/46 61/131/46 
f 62/135/47 63/136/47 44/137/47 
f 44/137/47 43/138/47 62/135/47 
f 63/136/48 64/139/48 45/140/48 
f 45/140/48 44/137/48 63/136/48 
f 64/139/49 65/141/49 46/142/49 
f 46/142/49 45/140/49 64/139/49 
f 65/141/50 66/143/50 47/144/50 
f 47/144/50 46/142/50 65/141/50 
f 66/145/51 67/146/51 48/147/51 
f 48/147/51 47/148/51 66/145/51 
f 67/146/52 68/149/52 49/150/52 
f 49/150/52 48/147/52 67/146/52 
f 68/149/53 69/151/53 50/152/53 
f 50/152/53 49/150/53 68/149/53 
f 69/151/54 70/153/54 51/154/54 
f 51/154/54 50/152/54 69/151/54 
f 70/153/55 71/155/55 52/156/55 
f 52/156/55 51/154/55 70/153/55 
f 71/157/56 72/158/56 53/159/56 
f 53/159/56 52/160/56 71/157/56 
f 72/158/57 56/117/57 54/120/57 
f 54/120/57 53/159/57 72/158/57 
# 0 polygons - 140 triangles

