# 3ds Max Wavefront OBJ Exporter v0.97b - (c)2007 guruware
# File Created: 19.09.2016 16:31:07

newmtl wire_228184153
	Ns 32
	d 1
	Tr 0
	Tf 1 1 1
	illum 2
	Ka 0.8941 0.7216 0.6000
	Kd 0.8941 0.7216 0.6000
	Ks 0.3500 0.3500 0.3500
