
<svg xmlns="http://www.w3.org/2000/svg" version="1.1" xmlns:xlink="http://www.w3.org/1999/xlink" preserveAspectRatio="none" x="0px" y="0px" width="156px" height="125px" viewBox="0 0 156 125">

<g id="Layer0_0_FILL">
<path transform="matrix( 1, 0, 0, 1, 0,0) " fill="#57E2FB" stroke="none" d="
M 156 6
Q 153.3 4.9 148.65 3.75 145.35 2.9 141.8 2.3 123.8 -0.65 103.85 0.2 75.6 1.4 54.9 10.55 26.35 23.1 11.7 43.8 -2.15 63.35 0.4 83.8 2.45 100.2 16.25 114.15 21.7 119.6 30 125
L 30 119.55
Q 22.25 111.2 20.15 103.95 17.45 94.25 20.95 84.4 23.55 77.05 29.25 70.7 31.2 68.5 33.55 66.45 41.85 59 50.9 55 56.35 52.6 57.35 52.25 72.7 46.9 88.9 44.6 93.65 43.9 102.5 43.45 110.85 43.05 115.15 43.15
L 156 6 Z"/>
</g>

</svg>
