
<svg xmlns="http://www.w3.org/2000/svg" version="1.1" xmlns:xlink="http://www.w3.org/1999/xlink" preserveAspectRatio="none" x="0px" y="0px" width="160px" height="160px" viewBox="0 0 160 160">

<path fill="#FFFFFF" fill-opacity="0.14901960784313725" stroke="none" d="
M 105.6 130.05
Q 101.6 132.05 97.4 133.45
L 109 154.85
Q 110.2 154.4 111.4 153.9
L 105.6 130.05
M 123.75 115
L 151.65 116.15
Q 153.6 112.25 155.15 108.2
L 134.45 93.7
Q 131.6 105.4 123.75 115
M 2.3 99.75
L 27.3 99.45
Q 25.45 94.35 24.65 88.85 24 89.2 2.3 99.75
M 32.4 109.7
Q 29.25 104.8 27.3 99.45
L 5 108.55 32.4 109.7
M 94.55 134.25
Q 92.6 134.7 90.7 135.1
L 96 158.55
Q 96.5 158.45 97 158.35
L 94.55 134.25
M 40.4 119.6
Q 40.05 119.25 39.7 118.9 33 132.95 28.9 141.6 31 143.4 33.25 145.05 50.65 128.6 50.6 127.8 45.2 124.4 40.4 119.6
M 80 136
Q 71.4 136 63.75 133.75
L 71.4 159.6
Q 73.3 159.8 75.3 159.9
L 79.9 136.75
Q 84.05 152.1 86.15 159.8 87.55 159.7 88.9 159.6
L 90.7 135.1
Q 85.55 136 80 136
M 24.8 70.2
Q 25.65 65 27.45 60.15
L 1 66.75 24.8 70.2
M 34.85 46.75
L 10.65 39.75
Q 9.45 41.75 8.4 43.8 27.45 60.2 27.45 60.15 30.1 53 34.85 46.75
M 46.4 35.15
Q 49.95 32.4 53.75 30.35
L 38.7 11.35 41.9 21.15
Q 44.15 28.15 46.4 35.15
M 62.1 26.75
L 52.2 4.75 55.25 29.6
Q 58.55 27.9 62.1 26.75
M 136 80
Q 136 86.85 134.6 93.1
L 159.55 89.05
Q 159.85 86.1 159.95 83.1
L 135.95 76.75
Q 136 78.35 136 80
M 159.5 70.55
Q 159.05 66.25 158.15 62.15
L 129.65 53.75
Q 135.3 64.2 135.95 76.75
L 159.5 70.55
M 103.75 29.1
Q 110.05 32.05 115.65 36.75
L 122.35 11.95
Q 121.3 11.25 120.3 10.65
L 103.75 29.1
M 100.2 2.4
L 86.45 24.35
Q 95.7 25.3 103.75 29.1
L 110.9 5.95
Q 105.7 3.8 100.2 2.4 Z"/>

<path fill="#FFFFFF" fill-opacity="0.2980392156862745" stroke="none" d="
M 122.05 148.25
Q 123.15 147.55 124.3 146.8
L 115.3 123.55
Q 111.8 126.4 108.1 128.65
L 122.05 148.25
M 138.4 134.65
L 123.75 115
Q 121.85 117.35 119.6 119.6 117.5 121.7 115.3 123.55
L 135.2 137.9
Q 135.85 137.25 136.55 136.55 137.5 135.6 138.4 134.65
M 39.4 118.6
Q 35.7 114.7 32.9 110.5 27.8 114.85 22.75 119.3 17.35 123.95 14.65 126.35 15.1 126.95 15.55 127.55
L 39.4 118.6
M 63.75 133.75
Q 56.8 131.7 50.6 127.8
L 52.85 155.5
Q 54.8 156.2 56.8 156.8
L 63.75 133.75
M 0.05 82.4
Q 23.85 88.5 24.65 88.8 24 84.5 24 80 24 74.95 24.8 70.25
L 0.05 82.4
M 20.55 26.4
L 34.85 46.75
Q 37.35 43.45 40.4 40.4 43.3 37.5 46.4 35.15
L 24.2 22.65
Q 23.8 23 23.4 23.4 21.9 24.9 20.55 26.4
M 66.85 1
Q 65.05 1.25 63.25 1.65
L 62.1 26.75
Q 67.65 24.9 73.75 24.3
L 66.85 1
M 84.3 0.1
Q 83 0.05 81.7 0.05
L 73.75 24.3
Q 76.8 24 80 24 83.3 24 86.45 24.35
L 84.3 0.1
M 151.2 43
Q 149.5 39.8 147.5 36.75
L 115.65 36.75
Q 117.65 38.45 119.6 40.4 125.8 46.6 129.65 53.75
L 151.2 43 Z"/>


</svg>
