[{
        "name": "Sample3DComponent",
        "instanceName": "sm-3d",
        "file_name": "custom/packs/sample_pack/components/Sample3DComponent/Sample3DComponent.js"
    },
    {
        "name": "SampleDomComponent",
        "instanceName": "smdom",
        "file_name": "custom/packs/sample_pack/components/SampleDomComponent/SampleDomComponent.js"
    },{
      "name": "ToggleButtonComponent",
      "instanceName": "tbn",
      "file_name": "custom/packs/sample_pack/components/ToggleButtonComponent/ToggleButtonComponent.js"
}
]
