{
      "three_layer": [
            {
                  "label": "Sample 3D Component",
                  "children": [
                        {
                              "id": "Sample 3D Component",
                              "label": "Sample 3D Component",
                              "name": "Sample3DComponent",
                              "show": true
                        }
                  ]
            }
      ],
      "two_layer": [
            {
                  "label": "Sample 2D Component",
                  "children": [
                        {
                              "id": "Sample DOM Component",
                              "label": "Sample DOM Component",
                              "name": "SampleDomComponent",
                              "show": true
                        },
                        {
                              "id": "Toggle Button",
                              "label": "Toggle Button",
                              "name": "ToggleButtonComponent",
                              "show": true
                        }
                  ]
            }
      ]
}
