# 3ds Max Wavefront OBJ Exporter v0.97b - (c)2007 guruware
# File Created: 30.09.2016 11:36:04

# mtllib ibmRack_SV.mtl

#
# object ibmServerRack
#

v  2.4738 0.0000 -7.4300
v  2.4738 0.0000 6.8943
v  -2.0877 0.0000 6.8943
v  -2.0877 0.0000 -7.4300
v  2.4738 20.1400 6.8943
v  2.4738 20.1400 -7.4300
v  -2.0877 20.1400 -7.4300
v  -2.0877 20.1400 6.8943
v  2.4738 0.0000 7.4300
v  2.4738 20.1400 7.4300
v  -2.0877 20.1400 7.4300
v  -2.0877 0.0000 7.4300
v  3.8750 0.0000 -7.4300
v  3.8750 20.1400 -7.4300
v  3.8750 20.1400 6.2525
v  3.8750 0.0000 6.2525
v  -3.8750 0.0000 6.2525
v  -3.8750 20.1400 6.2525
v  -3.8750 20.1400 -7.4300
v  -3.8750 0.0000 -7.4300
# 20 vertices

vn -0.0000 -1.0000 -0.0000
vn 0.0000 -1.0000 -0.0000
vn 0.0000 1.0000 -0.0000
vn 0.0000 0.0000 1.0000
vn 1.0000 0.0000 -0.0000
vn 0.0000 0.0000 -1.0000
vn -1.0000 0.0000 0.0000
vn 0.4164 0.0000 0.9092
vn -0.3379 0.0000 0.9412
vn -1.0000 0.0000 -0.0000
# 10 vertex normals

vt 0.8953 0.0578 0.0000
vt 0.8953 0.4726 0.0000
vt 0.7632 0.4726 0.0000
vt 0.7632 0.0578 0.0000
vt 0.3299 0.0140 0.0000
vt 0.3299 0.9940 0.0000
vt 0.1080 0.9940 0.0000
vt 0.1080 0.0140 0.0000
vt 0.5028 0.5106 0.0000
vt 0.5028 0.9866 0.0000
vt 0.8262 0.9866 0.0000
vt 0.8262 0.5106 0.0000
vt 0.6520 0.0116 0.0000
vt 0.6520 0.4859 0.0000
vt 0.5446 0.4859 0.0000
vt 0.5446 0.0116 0.0000
vt 0.9359 0.0578 0.0000
vt 0.9359 0.4540 0.0000
vt 0.7115 0.4540 0.0000
vt 0.7115 0.0578 0.0000
vt 0.4106 0.0140 0.0000
vt 0.4106 0.9940 0.0000
vt 0.3356 0.9940 0.0000
vt 0.3356 0.0140 0.0000
vt 0.0067 0.9940 0.0000
vt 0.0067 0.0140 0.0000
vt 0.0991 0.0140 0.0000
vt 0.0991 0.9940 0.0000
vt 0.6941 0.0116 0.0000
vt 0.6941 0.4859 0.0000
vt 0.5116 0.4859 0.0000
vt 0.5116 0.0116 0.0000
vt 0.8953 0.4881 0.0000
vt 0.7632 0.4881 0.0000
vt 0.4502 0.0116 0.0000
vt 0.4502 0.9916 0.0000
vt 0.4242 0.9916 0.0000
vt 0.4242 0.0116 0.0000
vt 0.4593 0.9916 0.0000
vt 0.4593 0.0116 0.0000
vt 0.4853 0.0116 0.0000
vt 0.4853 0.9916 0.0000
# 42 texture coords

g ibmServerRack
usemtl wire_225198087
s 2
f 1/1/1 2/2/2 3/3/1 
f 3/3/1 4/4/2 1/1/1 
s 4
f 5/2/3 6/1/3 7/4/3 
f 7/4/3 8/3/3 5/2/3 
s 8
f 9/5/4 10/6/4 11/7/4 
f 11/7/4 12/8/4 9/5/4 
s 16
f 13/9/5 14/10/5 15/11/5 
f 15/11/5 16/12/5 13/9/5 
s 32
f 4/13/6 7/14/6 6/15/6 
f 6/15/6 1/16/6 4/13/6 
s 64
f 17/12/7 18/11/7 19/10/7 
f 19/10/7 20/9/7 17/12/7 
s 2
f 13/17/2 16/18/2 2/2/2 
f 2/2/2 1/1/1 13/17/2 
f 17/19/2 20/20/2 4/4/2 
f 4/4/2 3/3/1 17/19/2 
s 4
f 15/18/3 14/17/3 6/1/3 
f 6/1/3 5/2/3 15/18/3 
f 19/20/3 18/19/3 8/3/3 
f 8/3/3 7/4/3 19/20/3 
s 8
f 16/21/8 15/22/8 5/23/8 
f 5/23/8 2/24/8 16/21/8 
f 18/25/9 17/26/9 3/27/9 
f 3/27/9 8/28/9 18/25/9 
s 32
f 20/29/6 19/30/6 7/14/6 
f 7/14/6 4/13/6 20/29/6 
f 14/31/6 13/32/6 1/16/6 
f 1/16/6 6/15/6 14/31/6 
s off
f 3/3/2 2/2/2 9/33/2 
f 9/33/2 12/34/2 3/3/2 
f 2/35/5 5/36/5 10/37/5 
f 10/37/5 9/38/5 2/35/5 
f 5/2/3 8/3/3 11/34/3 
f 11/34/3 10/33/3 5/2/3 
f 8/39/10 3/40/10 12/41/10 
f 12/41/10 11/42/10 8/39/10 
# 36 faces

