# 3ds Max Wavefront OBJ Exporter v0.97b - (c)2007 guruware
# File Created: 19.09.2016 16:31:07

# mtllib emcU4_ST.mtl

#
# object emcStorage4u
#

v  -2.4000 0.0000 3.5000
v  -2.4000 0.0000 -3.5000
v  2.4000 0.0000 -3.5000
v  2.4000 0.0000 3.5000
v  -2.4000 1.8000 3.5000
v  2.4000 1.8000 3.5000
v  2.4000 1.8000 -3.5000
v  -2.4000 1.8000 -3.5000
# 8 vertices

vn 0.0000 -1.0000 -0.0000
vn 0.0000 1.0000 -0.0000
vn 0.0000 0.0000 1.0000
vn 1.0000 0.0000 -0.0000
vn 0.0000 0.0000 -1.0000
vn -1.0000 0.0000 -0.0000
# 6 vertex normals

vt 0.5021 0.3925 0.0000
vt 0.0242 0.3925 0.0000
vt 0.0242 0.7202 0.0000
vt 0.5021 0.7202 0.0000
vt 0.0100 0.0100 0.0000
vt 0.9900 0.0100 0.0000
vt 0.9900 0.3775 0.0000
vt 0.0100 0.3775 0.0000
vt 0.6920 0.8162 0.0000
vt 0.0157 0.8162 0.0000
vt 0.0157 0.9901 0.0000
vt 0.6920 0.9901 0.0000
vt 0.9737 0.7726 0.0000
vt 0.5251 0.7726 0.0000
vt 0.5251 0.6043 0.0000
vt 0.9737 0.6043 0.0000
# 16 texture coords

g emcStorage4u
usemtl wire_228184153
s 2
f 1/1/1 2/2/1 3/3/1 
f 3/3/1 4/4/1 1/1/1 
s 4
f 5/1/2 6/4/2 7/3/2 
f 7/3/2 8/2/2 5/1/2 
s 8
f 1/5/3 4/6/3 6/7/3 
f 6/7/3 5/8/3 1/5/3 
s 16
f 4/9/4 3/10/4 7/11/4 
f 7/11/4 6/12/4 4/9/4 
s 32
f 3/13/5 2/14/5 8/15/5 
f 8/15/5 7/16/5 3/13/5 
s 64
f 2/10/6 1/9/6 5/12/6 
f 5/12/6 8/11/6 2/10/6 
# 12 faces

