{
    "width": 200,
    "height": 191,
    "default": "normal",

    "data": {
        "critical": {
            "type": "motion",
            "motionOptions": {
                "totalFrames": 90,
                "columns": 10
            }
        },
        "normal": {
            "type": "motion",
            "motionOptions": {
                "totalFrames": 90,
                "columns": 10
            }
        },
        "major": {
            "type": "motion",
            "motionOptions": {
                "totalFrames": 90,
                "columns": 10
            }
        },
        "minor": {
            "type": "motion",
            "motionOptions": {
                "totalFrames": 90,
                "columns": 10
            }
        },
        "warning": {
            "type": "motion",
            "motionOptions": {
                "totalFrames": 90,
                "columns": 10
            }
        }
    }
}