# 3ds Max Wavefront OBJ Exporter v0.97b - (c)2007 guruware
# File Created: 30.09.2016 09:57:41

newmtl wire_135110008
	Ns 32
	d 1
	Tr 0
	Tf 1 1 1
	illum 2
	Ka 0.5294 0.4314 0.0314
	Kd 0.5294 0.4314 0.0314
	Ks 0.3500 0.3500 0.3500
