
<svg xmlns="http://www.w3.org/2000/svg" version="1.1" xmlns:xlink="http://www.w3.org/1999/xlink" preserveAspectRatio="none" x="0px" y="0px" width="54px" height="54px" viewBox="0 0 54 54">
<defs>
<filter id="Filter_1" x="-20%" y="-20%" width="140%" height="140%" color-interpolation-filters="sRGB">
<feColorMatrix in="SourceGraphic" type="matrix" values="1 0 0 0 0 0 1 0 0 0 0 0 1 0 0 0 0 0 0.5 0" result="result1"/>
</filter>

<g id="Symbol_1_0_Layer0_0_FILL">
<path fill="#0D192A" fill-opacity="0.09803921568627451" stroke="none" d="
M 69.15 43.9
L 61.55 26.45 43.95 19.5 26.7 27.2 19.85 45 27.45 62.5 45.05 69.45 62.3 61.75 69.15 43.9 Z"/>
</g>

<g id="Symbol_1_0_Layer0_1_MEMBER_0_FILL">
<path fill="#FFFFFF" fill-opacity="0.2" stroke="none" d="
M 46.35 44.9
L 44.95 9.1 19.8 20.2 46.35 44.9 Z"/>
</g>

<g id="Symbol_1_0_Layer0_2_MEMBER_0_FILL">
<path fill="#FFFFFF" fill-opacity="0.2" stroke="none" d="
M 45.65 80.85
L 70.55 69.8 45.75 44.6 45.65 80.85 Z"/>
</g>

<g id="Symbol_1_0_Layer0_3_MEMBER_0_FILL">
<path fill="#FFFFFF" fill-opacity="0.047058823529411764" stroke="none" d="
M 79.95 44.35
L 69.65 19.65 46.4 44.7 79.95 44.35 Z"/>
</g>

<g id="Symbol_1_0_Layer0_4_MEMBER_0_FILL">
<path fill="#FFFFFF" fill-opacity="0.047058823529411764" stroke="none" d="
M 9.7 45.65
L 20.45 70.65 46.05 44.55 9.7 45.65 Z"/>
</g>

<path id="line01_01_0_Layer0_0_1_STROKES" stroke="#999999" stroke-width="2" stroke-linejoin="miter" stroke-linecap="butt" stroke-miterlimit="4" fill="none" d="
M 71.45 70.6
L 45.75 82.05 19.6 71.75 8.3 45.75 18.45 19.25 44.15 7.8 70.35 18.1 81.65 44.1 71.45 70.6 Z"/>
</defs>

<g transform="matrix( 1, 0, 0, 1, 2,2) ">
<g transform="matrix( 0.681640625, 0, 0, 0.67340087890625, -4.9,-4.5) ">
<use xlink:href="#Symbol_1_0_Layer0_0_FILL"/>
</g>

<g transform="matrix( 0.681640625, 0, 0, 0.67340087890625, -5.95,-5.45) ">
<use xlink:href="#Symbol_1_0_Layer0_1_MEMBER_0_FILL"/>
</g>

<g transform="matrix( 0.681640625, 0, 0, 0.67340087890625, -5.65,-5.25) ">
<use xlink:href="#Symbol_1_0_Layer0_2_MEMBER_0_FILL"/>
</g>

<g transform="matrix( 0.681640625, 0, 0, 0.67340087890625, -5.65,-5.25) ">
<use xlink:href="#Symbol_1_0_Layer0_3_MEMBER_0_FILL"/>
</g>

<g transform="matrix( 0.681640625, 0, 0, 0.67340087890625, -5.65,-5) ">
<use xlink:href="#Symbol_1_0_Layer0_4_MEMBER_0_FILL"/>
</g>

<g transform="matrix( 0.681640625, 0, 0, 0.67340087890625, 0,0) ">
<g transform="matrix( 1, 0, 0, 1, 0,0) ">
<g transform="matrix( 1, 0, 0, 1, -8.3,-7.8) ">
<use filter="url(#Filter_1)" xlink:href="#line01_01_0_Layer0_0_1_STROKES"/>
</g>
</g>
</g>
</g>
</svg>
