# 3ds Max Wavefront OBJ Exporter v0.97b - (c)2007 guruware
# File Created: 19.09.2016 15:52:01

# mtllib hpU2_SV.mtl

#
# object hpServer2u
#

v  -2.4000 0.0000 3.5000
v  -2.4000 0.0000 -3.5000
v  2.4000 0.0000 -3.5000
v  2.4000 0.0000 3.5000
v  -2.4000 0.9000 3.5000
v  2.4000 0.9000 3.5000
v  2.4000 0.9000 -3.5000
v  -2.4000 0.9000 -3.5000
# 8 vertices

vn 0.0000 -1.0000 -0.0000
vn 0.0000 1.0000 -0.0000
vn 0.0000 0.0000 1.0000
vn 1.0000 0.0000 -0.0000
vn 0.0000 0.0000 -1.0000
vn -1.0000 0.0000 -0.0000
# 6 vertex normals

vt 0.7195 0.3898 0.0000
vt 0.0201 0.3898 0.0000
vt 0.0201 0.8694 0.0000
vt 0.7195 0.8694 0.0000
vt 0.0100 0.0100 0.0000
vt 0.9900 0.0100 0.0000
vt 0.9900 0.1937 0.0000
vt 0.0100 0.1937 0.0000
vt 0.7287 0.8862 0.0000
vt 0.0159 0.8862 0.0000
vt 0.0159 0.9778 0.0000
vt 0.7287 0.9778 0.0000
vt 0.7380 0.3554 0.0000
vt 0.0283 0.3554 0.0000
vt 0.0283 0.2223 0.0000
vt 0.7380 0.2223 0.0000
# 16 texture coords

g hpServer2u
usemtl wire_228184153
s 2
f 1/1/1 2/2/1 3/3/1 
f 3/3/1 4/4/1 1/1/1 
s 4
f 5/1/2 6/4/2 7/3/2 
f 7/3/2 8/2/2 5/1/2 
s 8
f 1/5/3 4/6/3 6/7/3 
f 6/7/3 5/8/3 1/5/3 
s 16
f 4/9/4 3/10/4 7/11/4 
f 7/11/4 6/12/4 4/9/4 
s 32
f 3/13/5 2/14/5 8/15/5 
f 8/15/5 7/16/5 3/13/5 
s 64
f 2/10/6 1/9/6 5/12/6 
f 5/12/6 8/11/6 2/10/6 
# 12 faces

