{
    "width": 94,
    "height": 128,
    "default": "critical",

    "data": {
        "critical": {
            "type": "motion",
            "motionOptions": {
                "totalFrames": 40,
                "columns": 5
            }
        },
        "normal": {
        },
        "major": {
        },
        "minor": {
        },
        "warning": {
        }
    }
}
