# 3ds Max Wavefront OBJ Exporter v0.97b - (c)2007 guruware
# File Created: 08.06.2018 13:19:41

newmtl Material__27
	Ns 10.0000
	Ni 1.5000
	d 1.0000
	Tr 0.0000
	Tf 1.0000 1.0000 1.0000 
	illum 2
	Ka 0.5880 0.5880 0.5880
	Kd 0.5880 0.5880 0.5880
	Ks 0.0000 0.0000 0.0000
	Ke 0.0000 0.0000 0.0000
	map_Ka C:\Users\JEONGBIN\Desktop\RENOBIT\tempHumiSensor_TH\maps\sensor.png
	map_Kd C:\Users\JEONGBIN\Desktop\RENOBIT\tempHumiSensor_TH\maps\sensor.png
