# 3ds Max Wavefront OBJ Exporter v0.97b - (c)2007 guruware
# File Created: 17.07.2018 13:42:58

mtllib pduPanel_PB.mtl

#
# object pduPanel
#

v  3.0000 0.0000 1.3500
v  -3.0000 0.0000 1.3500
v  -3.0000 0.0000 -1.5000
v  3.0000 0.0000 -1.5000
v  -3.0000 18.0000 -1.5000
v  -3.0000 18.0000 1.3500
v  3.0000 18.0000 1.3500
v  3.0000 18.0000 -1.5000
v  -2.8000 17.8000 -0.2988
v  -2.8000 0.2000 -0.2988
v  2.8000 0.2000 -0.2988
v  2.8000 17.8000 -0.2988
v  2.8000 0.2000 1.3500
v  -2.8000 0.2000 1.3500
v  2.8000 17.8000 1.3500
v  -2.8000 17.8000 1.3500
# 16 vertices

vn 0.0000 -1.0000 -0.0000
vn 0.0000 1.0000 -0.0000
vn 0.0000 0.0000 1.0000
vn 1.0000 0.0000 -0.0000
vn 0.0000 0.0000 -1.0000
vn -1.0000 0.0000 -0.0000
# 6 vertex normals

vt 0.9599 0.8156 0.0000
vt 0.7603 0.8156 0.0000
vt 0.7603 0.7208 0.0000
vt 0.9599 0.7208 0.0000
vt 0.7603 0.9143 0.0000
vt 0.7603 0.8195 0.0000
vt 0.9599 0.8195 0.0000
vt 0.9599 0.9143 0.0000
vt 0.0096 0.9890 0.0000
vt 0.0096 0.0107 0.0000
vt 0.3209 0.0107 0.0000
vt 0.3209 0.9890 0.0000
vt 0.4464 0.6522 0.0000
vt 0.5474 0.6522 0.0000
vt 0.5474 0.0147 0.0000
vt 0.4464 0.0147 0.0000
vt 0.7697 0.6414 0.0000
vt 0.5608 0.6414 0.0000
vt 0.5608 0.0147 0.0000
vt 0.7697 0.0147 0.0000
vt 0.7818 0.0147 0.0000
vt 0.9907 0.0147 0.0000
vt 0.9837 0.0216 0.0000
vt 0.7887 0.0216 0.0000
vt 0.9907 0.6414 0.0000
vt 0.9837 0.6345 0.0000
vt 0.7818 0.6414 0.0000
vt 0.7887 0.6345 0.0000
vt 0.7351 0.7975 0.0000
vt 0.4606 0.7975 0.0000
vt 0.4606 0.8783 0.0000
vt 0.7351 0.8783 0.0000
vt 0.3431 0.0107 0.0000
vt 0.4339 0.0107 0.0000
vt 0.4339 0.9807 0.0000
vt 0.3431 0.9807 0.0000
# 36 texture coords

g pduPanel
usemtl _pduPanel_PB_pduPanel_PBwire_087224198
s off
f 1/1/1 2/2/1 3/3/1 
f 3/3/1 4/4/1 1/1/1 
f 5/5/2 6/6/2 7/7/2 
f 7/7/2 8/8/2 5/5/2 
f 9/9/3 10/10/3 11/11/3 
f 11/11/3 12/12/3 9/9/3 
f 8/13/4 7/14/4 1/15/4 
f 1/15/4 4/16/4 8/13/4 
f 5/17/5 8/18/5 4/19/5 
f 4/19/5 3/20/5 5/17/5 
f 6/14/6 5/13/6 3/16/6 
f 3/16/6 2/15/6 6/14/6 
f 2/21/3 1/22/3 13/23/3 
f 13/23/3 14/24/3 2/21/3 
f 13/23/3 1/22/3 7/25/3 
f 7/25/3 15/26/3 13/23/3 
f 15/26/3 7/25/3 6/27/3 
f 6/27/3 16/28/3 15/26/3 
f 6/27/3 2/21/3 14/24/3 
f 14/24/3 16/28/3 6/27/3 
f 11/29/2 10/30/2 14/31/2 
f 14/31/2 13/32/2 11/29/2 
f 11/33/6 13/34/6 15/35/6 
f 15/35/6 12/36/6 11/33/6 
f 15/32/1 16/31/1 9/30/1 
f 9/30/1 12/29/1 15/32/1 
f 9/36/4 16/35/4 14/34/4 
f 14/34/4 10/33/4 9/36/4 
# 28 faces

#
# object doorRight
#

v  2.0666 14.6249 1.4692
v  1.1810 14.6249 1.4692
v  1.1810 14.0345 1.4692
v  2.0666 14.0345 1.4692
v  1.1810 14.0345 1.4100
v  2.0666 14.0345 1.4100
v  2.0666 14.6249 1.4100
v  1.1810 14.6249 1.4100
v  -2.4829 12.0465 1.3500
v  -2.4829 15.3902 1.3500
v  2.4644 15.3902 1.3500
v  2.4644 12.0465 1.3500
v  -3.0000 12.0465 1.5000
v  -3.0000 15.3902 1.5000
v  -3.0000 15.3902 1.3500
v  -3.0000 12.0465 1.3500
v  2.4644 12.0465 1.4100
v  2.4644 15.3902 1.4100
v  -2.4829 15.3902 1.4100
v  -2.4829 12.0465 1.4100
v  3.0000 12.0465 1.5000
v  3.0000 12.0465 1.3500
v  3.0000 15.3902 1.3500
v  3.0000 15.3902 1.5000
v  -2.4829 0.0000 1.5000
v  -2.4829 0.0000 1.3500
v  2.4644 0.0000 1.3500
v  2.4644 0.0000 1.5000
v  -2.4829 18.0000 1.3500
v  -2.4829 18.0000 1.5000
v  2.4644 18.0000 1.5000
v  2.4644 18.0000 1.3500
v  -3.0000 18.0000 1.5000
v  -3.0000 18.0000 1.3500
v  -3.0000 0.0000 1.5000
v  -3.0000 0.0000 1.3500
v  2.4644 15.3902 1.5000
v  -2.4829 15.3902 1.5000
v  2.4644 12.0465 1.5000
v  -2.4829 12.0465 1.5000
v  3.0000 18.0000 1.3500
v  3.0000 18.0000 1.5000
v  3.0000 0.0000 1.3500
v  3.0000 0.0000 1.5000
v  2.0666 13.3112 1.4692
v  1.1810 13.3112 1.4692
v  1.1810 12.7208 1.4692
v  2.0666 12.7208 1.4692
v  1.1810 12.7208 1.4100
v  2.0666 12.7208 1.4100
v  2.0666 13.3112 1.4100
v  1.1810 13.3112 1.4100
# 52 vertices

vn 0.0000 0.0000 1.0000
vn 0.0000 -1.0000 -0.0000
vn 1.0000 0.0000 -0.0000
vn 0.0000 1.0000 -0.0000
vn -1.0000 0.0000 -0.0000
vn 0.0000 0.0000 -1.0000
# 6 vertex normals

vt 0.3753 0.6400 0.0000
vt 0.5586 0.6400 0.0000
vt 0.5586 0.7622 0.0000
vt 0.3753 0.7622 0.0000
vt 0.7530 0.5493 0.0000
vt 0.5710 0.5493 0.0000
vt 0.5710 0.5371 0.0000
vt 0.7530 0.5371 0.0000
vt 0.6002 0.5809 0.0000
vt 0.7215 0.5809 0.0000
vt 0.7215 0.5931 0.0000
vt 0.6002 0.5931 0.0000
vt 0.5710 0.5201 0.0000
vt 0.5710 0.5079 0.0000
vt 0.7530 0.5079 0.0000
vt 0.7530 0.5201 0.0000
vt 0.6002 0.5663 0.0000
vt 0.7215 0.5663 0.0000
vt 0.7215 0.5785 0.0000
vt 0.6002 0.5785 0.0000
vt 0.9716 0.4805 0.0000
vt 0.9716 0.6098 0.0000
vt 0.7803 0.6098 0.0000
vt 0.7803 0.4805 0.0000
vt 0.3511 0.6681 0.0000
vt 0.3511 0.8499 0.0000
vt 0.3430 0.8499 0.0000
vt 0.3430 0.6681 0.0000
vt 0.6499 0.7802 0.0000
vt 0.6499 0.9697 0.0000
vt 0.3809 0.9697 0.0000
vt 0.3809 0.7802 0.0000
vt 0.3541 0.6681 0.0000
vt 0.3622 0.6681 0.0000
vt 0.3622 0.8499 0.0000
vt 0.3541 0.8499 0.0000
vt 0.3933 0.0322 0.0000
vt 0.3933 0.0240 0.0000
vt 0.6623 0.0240 0.0000
vt 0.6623 0.0322 0.0000
vt 0.3933 0.0211 0.0000
vt 0.3933 0.0129 0.0000
vt 0.6623 0.0129 0.0000
vt 0.6623 0.0211 0.0000
vt 0.7803 0.7108 0.0000
vt 0.9716 0.7108 0.0000
vt 0.7803 0.0146 0.0000
vt 0.9716 0.0146 0.0000
vt 0.3511 0.9918 0.0000
vt 0.3430 0.9918 0.0000
vt 0.3511 0.0129 0.0000
vt 0.3430 0.0129 0.0000
vt 0.3085 0.8516 0.0000
vt 0.3085 0.9939 0.0000
vt 0.0386 0.9939 0.0000
vt 0.0386 0.8516 0.0000
vt 0.3085 0.0119 0.0000
vt 0.3085 0.6691 0.0000
vt 0.0386 0.6691 0.0000
vt 0.0386 0.0119 0.0000
vt 0.3622 0.9918 0.0000
vt 0.3541 0.9918 0.0000
vt 0.3622 0.0129 0.0000
vt 0.3541 0.0129 0.0000
vt 0.7596 0.4805 0.0000
vt 0.7596 0.6098 0.0000
vt 0.9916 0.6098 0.0000
vt 0.9916 0.4805 0.0000
vt 0.0104 0.8516 0.0000
vt 0.0104 0.6691 0.0000
vt 0.3377 0.6691 0.0000
vt 0.3377 0.8516 0.0000
vt 0.6914 0.0240 0.0000
vt 0.6914 0.0322 0.0000
vt 0.3651 0.0322 0.0000
vt 0.3651 0.0240 0.0000
vt 0.6914 0.0129 0.0000
vt 0.6914 0.0211 0.0000
vt 0.3651 0.0211 0.0000
vt 0.3651 0.0129 0.0000
vt 0.7596 0.7108 0.0000
vt 0.9916 0.7108 0.0000
vt 0.9916 0.0146 0.0000
vt 0.7596 0.0146 0.0000
vt 0.0104 0.9939 0.0000
vt 0.3377 0.9939 0.0000
vt 0.3377 0.0119 0.0000
vt 0.0104 0.0119 0.0000
vt 0.6527 0.8041 0.0000
vt 0.7828 0.8041 0.0000
vt 0.7828 0.8066 0.0000
vt 0.6527 0.8066 0.0000
vt 0.6552 0.8072 0.0000
vt 0.6552 0.8989 0.0000
vt 0.6527 0.8989 0.0000
vt 0.6527 0.8072 0.0000
vt 0.7828 0.8010 0.0000
vt 0.7828 0.8034 0.0000
vt 0.6527 0.8034 0.0000
vt 0.6527 0.8010 0.0000
vt 0.6558 0.8072 0.0000
vt 0.6583 0.8072 0.0000
vt 0.6583 0.8989 0.0000
vt 0.6558 0.8989 0.0000
vt 0.3753 0.5056 0.0000
vt 0.5586 0.5056 0.0000
vt 0.5586 0.6278 0.0000
vt 0.3753 0.6278 0.0000
vt 0.7530 0.5347 0.0000
vt 0.5710 0.5347 0.0000
vt 0.5710 0.5225 0.0000
vt 0.7530 0.5225 0.0000
vt 0.5856 0.6877 0.0000
vt 0.5856 0.5663 0.0000
vt 0.5977 0.5663 0.0000
vt 0.5977 0.6877 0.0000
vt 0.7530 0.5639 0.0000
vt 0.5710 0.5639 0.0000
vt 0.5710 0.5517 0.0000
vt 0.7530 0.5517 0.0000
vt 0.5831 0.6877 0.0000
vt 0.5710 0.6877 0.0000
vt 0.5710 0.5663 0.0000
vt 0.5831 0.5663 0.0000
# 124 texture coords

g doorRight
usemtl _pduPanel_PB_pduPanel_PB07___Default
s 4
f 17/37/7 18/38/7 19/39/7 
f 19/39/7 20/40/7 17/37/7 
s 8
f 21/41/8 22/42/8 20/43/8 
f 20/43/8 19/44/8 21/41/8 
s 16
f 17/45/9 20/46/9 22/47/9 
f 22/47/9 23/48/9 17/45/9 
s 32
f 24/49/10 18/50/10 17/51/10 
f 17/51/10 23/52/10 24/49/10 
s 64
f 19/53/11 18/54/11 24/55/11 
f 24/55/11 21/56/11 19/53/11 
s 1
f 25/57/12 26/58/12 27/59/12 
f 27/59/12 28/60/12 25/57/12 
s 4
f 29/61/11 30/62/11 31/63/11 
f 31/63/11 32/64/11 29/61/11 
s 2
f 33/65/7 34/66/7 35/67/7 
f 35/67/7 36/68/7 33/65/7 
s 4
f 37/69/9 38/70/9 39/71/9 
f 39/71/9 40/72/9 37/69/9 
s 16
f 41/73/8 42/74/8 43/75/8 
f 43/75/8 44/76/8 41/73/8 
f 45/77/10 46/78/10 47/79/10 
f 47/79/10 48/80/10 45/77/10 
s 1
f 48/81/12 27/59/12 26/58/12 
f 26/58/12 45/82/12 48/81/12 
f 43/83/12 42/84/12 25/57/12 
f 25/57/12 28/60/12 43/83/12 
s 4
f 31/63/11 30/62/11 49/85/11 
f 49/85/11 50/86/11 31/63/11 
f 51/87/11 29/61/11 32/64/11 
f 32/64/11 52/88/11 51/87/11 
s 2
f 53/89/7 47/90/7 46/91/7 
f 46/91/7 54/92/7 53/89/7 
f 44/93/7 55/94/7 56/95/7 
f 56/95/7 41/96/7 44/93/7 
s 4
f 40/72/9 39/71/9 57/97/9 
f 57/97/9 58/98/9 40/72/9 
f 59/99/9 38/70/9 37/69/9 
f 37/69/9 60/100/9 59/99/9 
s 1
f 38/101/12 28/60/12 27/59/12 
f 27/59/12 39/102/12 38/101/12 
f 31/103/12 26/58/12 25/57/12 
f 25/57/12 32/104/12 31/103/12 
s 2
f 30/105/7 29/106/7 56/95/7 
f 56/95/7 54/92/7 30/105/7 
f 53/89/7 55/94/7 37/107/7 
f 37/107/7 40/108/7 53/89/7 
s 16
f 59/109/8 60/110/8 44/76/8 
f 44/76/8 43/75/8 59/109/8 
f 42/74/8 41/73/8 51/111/8 
f 51/111/8 52/112/8 42/74/8 
f 47/79/10 58/113/10 57/114/10 
f 57/114/10 48/80/10 47/79/10 
f 46/78/10 45/77/10 50/115/10 
f 50/115/10 49/116/10 46/78/10 
s 1
f 39/102/12 27/59/12 48/81/12 
f 48/81/12 57/117/12 39/102/12 
f 50/118/12 45/82/12 26/58/12 
f 26/58/12 31/103/12 50/118/12 
f 32/104/12 25/57/12 42/84/12 
f 42/84/12 52/119/12 32/104/12 
f 43/83/12 28/60/12 38/101/12 
f 38/101/12 59/120/12 43/83/12 
s 2
f 49/121/7 30/105/7 54/92/7 
f 54/92/7 46/91/7 49/121/7 
f 40/108/7 58/122/7 47/90/7 
f 47/90/7 53/89/7 40/108/7 
f 44/93/7 60/123/7 37/107/7 
f 37/107/7 55/94/7 44/93/7 
f 41/96/7 56/95/7 29/106/7 
f 29/106/7 51/124/7 41/96/7 
s off
f 53/125/8 54/126/8 35/127/8 
f 35/127/8 34/128/8 53/125/8 
f 54/129/9 56/130/9 36/131/9 
f 36/131/9 35/132/9 54/129/9 
f 55/133/10 33/134/10 36/135/10 
f 36/135/10 56/136/10 55/133/10 
f 33/137/11 55/138/11 53/139/11 
f 53/139/11 34/140/11 33/137/11 
s 4
f 61/141/7 62/142/7 63/143/7 
f 63/143/7 64/144/7 61/141/7 
s 8
f 64/145/8 63/146/8 65/147/8 
f 65/147/8 66/148/8 64/145/8 
s 16
f 66/149/9 67/150/9 61/151/9 
f 61/151/9 64/152/9 66/149/9 
s 32
f 67/153/10 68/154/10 62/155/10 
f 62/155/10 61/156/10 67/153/10 
s 64
f 62/157/11 68/158/11 65/159/11 
f 65/159/11 63/160/11 62/157/11 
# 88 faces

#
# object port_l
#

v  -0.8098 13.7965 -0.2988
v  -1.4508 13.7965 -0.2988
v  -1.4508 13.7965 0.0579
v  -0.8098 13.7965 0.0579
v  -1.6000 13.7965 0.0579
v  -1.6000 13.7965 -0.2988
v  -1.6000 13.3964 -0.2988
v  -1.6000 13.3964 0.0579
v  -1.4508 13.3964 -0.2988
v  -0.8098 13.3964 -0.2988
v  -0.8098 13.3964 0.0579
v  -1.4508 13.3964 0.0579
v  -1.4508 13.3964 0.1542
v  -0.8098 13.3964 0.1542
v  -0.8098 13.7965 0.1542
v  -1.4508 13.7965 0.1542
v  -0.6605 13.7965 0.0579
v  -0.6605 13.7965 -0.2988
v  -0.6605 13.3964 -0.2988
v  -0.6605 13.3964 0.0579
v  0.0000 13.7965 -0.2098
v  0.0000 13.3964 -0.2098
v  0.0000 13.3964 -0.2988
v  0.0000 13.7965 -0.2988
v  -0.6605 13.3964 -0.2098
v  -0.6605 13.7965 -0.2098
# 26 vertices

vn 0.0000 1.0000 -0.0000
vn -1.0000 0.0000 -0.0000
vn 0.0000 -1.0000 -0.0000
vn 0.0000 0.0000 1.0000
vn 1.0000 0.0000 -0.0000
# 5 vertex normals

vt 0.4279 0.8082 0.0000
vt 0.1046 0.8082 0.0000
vt 0.1046 0.9540 0.0000
vt 0.4279 0.9540 0.0000
vt 0.2472 0.4904 0.0000
vt 0.2472 0.3428 0.0000
vt 0.0297 0.3428 0.0000
vt 0.0297 0.4904 0.0000
vt 0.1046 0.7969 0.0000
vt 0.4279 0.7969 0.0000
vt 0.4279 0.6512 0.0000
vt 0.1046 0.6512 0.0000
vt 0.5233 0.0179 0.0000
vt 0.9896 0.0179 0.0000
vt 0.9896 0.3277 0.0000
vt 0.5233 0.3277 0.0000
vt 0.5032 0.9540 0.0000
vt 0.5032 0.8082 0.0000
vt 0.0293 0.8082 0.0000
vt 0.0293 0.9540 0.0000
vt 0.0293 0.6512 0.0000
vt 0.0293 0.7969 0.0000
vt 0.5032 0.7969 0.0000
vt 0.5032 0.6512 0.0000
vt 0.0297 0.5019 0.0000
vt 0.0297 0.5781 0.0000
vt 0.2472 0.5781 0.0000
vt 0.2472 0.5019 0.0000
vt 0.7293 0.8835 0.0000
vt 0.7293 0.8082 0.0000
vt 0.5145 0.8082 0.0000
vt 0.5145 0.8835 0.0000
vt 0.1046 0.6118 0.0000
vt 0.4279 0.6118 0.0000
vt 0.7293 0.9342 0.0000
vt 0.7293 0.8948 0.0000
vt 0.5145 0.8948 0.0000
vt 0.5145 0.9342 0.0000
vt 0.4279 0.9934 0.0000
vt 0.1046 0.9934 0.0000
vt 0.5115 0.5314 0.0000
vt 0.5115 0.4916 0.0000
vt 0.2940 0.4916 0.0000
vt 0.2940 0.5314 0.0000
vt 0.5145 0.7576 0.0000
vt 0.7293 0.7576 0.0000
vt 0.7293 0.6118 0.0000
vt 0.5145 0.6118 0.0000
vt 0.5117 0.4388 0.0000
vt 0.2942 0.4388 0.0000
vt 0.2942 0.4756 0.0000
vt 0.5117 0.4756 0.0000
vt 0.0090 0.0090 0.0000
vt 0.4896 0.0090 0.0000
vt 0.4896 0.3187 0.0000
vt 0.0090 0.3187 0.0000
vt 0.2942 0.3791 0.0000
vt 0.6317 0.3791 0.0000
vt 0.6317 0.3423 0.0000
vt 0.2942 0.3423 0.0000
vt 0.6317 0.4274 0.0000
vt 0.6317 0.3905 0.0000
vt 0.2942 0.3905 0.0000
vt 0.2942 0.4274 0.0000
# 64 texture coords

g port_l
usemtl _pduPanel_PB_pduPanel_PB_common_bunjunPanelwire_153228214
s 1
f 69/161/13 70/162/13 71/163/13 
f 71/163/13 72/164/13 69/161/13 
s 4
f 73/165/14 74/166/14 75/167/14 
f 75/167/14 76/168/14 73/165/14 
s 2
f 77/169/15 78/170/15 79/171/15 
f 79/171/15 80/172/15 77/169/15 
s 16
f 81/173/16 82/174/16 83/175/16 
f 83/175/16 84/176/16 81/173/16 
s 1
f 85/177/13 86/178/13 69/161/13 
f 69/161/13 72/164/13 85/177/13 
f 70/162/13 74/179/13 73/180/13 
f 73/180/13 71/163/13 70/162/13 
s 2
f 76/181/15 75/182/15 77/169/15 
f 77/169/15 80/172/15 76/181/15 
f 78/170/15 87/183/15 88/184/15 
f 88/184/15 79/171/15 78/170/15 
s 16
f 76/185/16 80/186/16 71/187/16 
f 71/187/16 73/188/16 76/185/16 
f 85/189/16 72/190/16 79/191/16 
f 79/191/16 88/192/16 85/189/16 
s off
f 81/193/15 80/172/15 79/171/15 
f 79/171/15 82/194/15 81/193/15 
f 84/195/14 71/196/14 80/197/14 
f 80/197/14 81/198/14 84/195/14 
f 83/199/13 72/164/13 71/163/13 
f 71/163/13 84/200/13 83/199/13 
f 72/201/17 83/202/17 82/203/17 
f 82/203/17 79/204/17 72/201/17 
f 87/205/17 86/206/17 85/207/17 
f 85/207/17 88/208/17 87/205/17 
s 4
f 89/209/17 90/210/17 91/211/17 
f 91/211/17 92/212/17 89/209/17 
s 2
f 93/213/16 90/214/16 89/215/16 
f 89/215/16 94/216/16 93/213/16 
s 16
f 87/217/15 91/218/15 90/219/15 
f 90/219/15 93/220/15 87/217/15 
f 89/221/13 92/222/13 86/223/13 
f 86/223/13 94/224/13 89/221/13 
# 38 faces

#
# object port_r
#

v  0.8098 13.7965 0.0579
v  1.4508 13.7965 0.0579
v  1.4508 13.7965 -0.2988
v  0.8098 13.7965 -0.2988
v  1.6000 13.3964 0.0579
v  1.6000 13.3964 -0.2988
v  1.6000 13.7965 -0.2988
v  1.6000 13.7965 0.0579
v  1.4508 13.3964 0.0579
v  0.8098 13.3964 0.0579
v  0.8098 13.3964 -0.2988
v  1.4508 13.3964 -0.2988
v  1.4508 13.7965 0.1542
v  0.8098 13.7965 0.1542
v  0.8098 13.3964 0.1542
v  1.4508 13.3964 0.1542
v  0.6605 13.7965 -0.2988
v  0.6605 13.7965 0.0579
v  0.6605 13.3964 0.0579
v  0.6605 13.3964 -0.2988
v  0.0000 13.7965 -0.2988
v  0.0000 13.3964 -0.2988
v  0.0000 13.3964 -0.2098
v  0.0000 13.7965 -0.2098
v  0.6605 13.7965 -0.2098
v  0.6605 13.3964 -0.2098
# 26 vertices

vn 0.0000 1.0000 -0.0000
vn 1.0000 0.0000 -0.0000
vn 0.0000 -1.0000 -0.0000
vn 0.0000 0.0000 1.0000
vn -1.0000 0.0000 -0.0000
# 5 vertex normals

vt 0.4279 0.9540 0.0000
vt 0.1046 0.9540 0.0000
vt 0.1046 0.8082 0.0000
vt 0.4279 0.8082 0.0000
vt 0.0297 0.4904 0.0000
vt 0.0297 0.3428 0.0000
vt 0.2472 0.3428 0.0000
vt 0.2472 0.4904 0.0000
vt 0.1046 0.6512 0.0000
vt 0.4279 0.6512 0.0000
vt 0.4279 0.7969 0.0000
vt 0.1046 0.7969 0.0000
vt 0.9896 0.3277 0.0000
vt 0.5233 0.3277 0.0000
vt 0.5233 0.0179 0.0000
vt 0.9896 0.0179 0.0000
vt 0.5032 0.8082 0.0000
vt 0.5032 0.9540 0.0000
vt 0.0293 0.9540 0.0000
vt 0.0293 0.8082 0.0000
vt 0.0293 0.7969 0.0000
vt 0.0293 0.6512 0.0000
vt 0.5032 0.6512 0.0000
vt 0.5032 0.7969 0.0000
vt 0.2472 0.5019 0.0000
vt 0.2472 0.5781 0.0000
vt 0.0297 0.5781 0.0000
vt 0.0297 0.5019 0.0000
vt 0.5145 0.8835 0.0000
vt 0.5145 0.8082 0.0000
vt 0.7293 0.8082 0.0000
vt 0.7293 0.8835 0.0000
vt 0.4279 0.6118 0.0000
vt 0.1046 0.6118 0.0000
vt 0.5145 0.9342 0.0000
vt 0.5145 0.8948 0.0000
vt 0.7293 0.8948 0.0000
vt 0.7293 0.9342 0.0000
vt 0.1046 0.9934 0.0000
vt 0.4279 0.9934 0.0000
vt 0.2940 0.5314 0.0000
vt 0.2940 0.4916 0.0000
vt 0.5115 0.4916 0.0000
vt 0.5115 0.5314 0.0000
vt 0.5145 0.6118 0.0000
vt 0.7293 0.6118 0.0000
vt 0.7293 0.7576 0.0000
vt 0.5145 0.7576 0.0000
vt 0.5117 0.4756 0.0000
vt 0.2942 0.4756 0.0000
vt 0.2942 0.4388 0.0000
vt 0.5117 0.4388 0.0000
vt 0.4896 0.3187 0.0000
vt 0.0090 0.3187 0.0000
vt 0.0090 0.0090 0.0000
vt 0.4896 0.0090 0.0000
vt 0.2942 0.3423 0.0000
vt 0.6317 0.3423 0.0000
vt 0.6317 0.3791 0.0000
vt 0.2942 0.3791 0.0000
vt 0.2942 0.4274 0.0000
vt 0.2942 0.3905 0.0000
vt 0.6317 0.3905 0.0000
vt 0.6317 0.4274 0.0000
# 64 texture coords

g port_r
usemtl _pduPanel_PB_pduPanel_PB_common_bunjunPanel04___Default
s 1
f 95/225/18 96/226/18 97/227/18 
f 97/227/18 98/228/18 95/225/18 
s 4
f 99/229/19 100/230/19 101/231/19 
f 101/231/19 102/232/19 99/229/19 
s 2
f 103/233/20 104/234/20 105/235/20 
f 105/235/20 106/236/20 103/233/20 
s 16
f 107/237/21 108/238/21 109/239/21 
f 109/239/21 110/240/21 107/237/21 
s 1
f 95/225/18 98/228/18 111/241/18 
f 111/241/18 112/242/18 95/225/18 
f 96/226/18 102/243/18 101/244/18 
f 101/244/18 97/227/18 96/226/18 
s 2
f 103/233/20 106/236/20 100/245/20 
f 100/245/20 99/246/20 103/233/20 
f 104/234/20 113/247/20 114/248/20 
f 114/248/20 105/235/20 104/234/20 
s 16
f 102/249/21 96/250/21 103/251/21 
f 103/251/21 99/252/21 102/249/21 
f 113/253/21 104/254/21 95/255/21 
f 95/255/21 112/256/21 113/253/21 
s off
f 109/257/20 104/234/20 103/233/20 
f 103/233/20 110/258/20 109/257/20 
f 110/259/19 103/260/19 96/261/19 
f 96/261/19 107/262/19 110/259/19 
f 107/263/18 96/226/18 95/225/18 
f 95/225/18 108/264/18 107/263/18 
f 104/265/22 109/266/22 108/267/22 
f 108/267/22 95/268/22 104/265/22 
f 113/269/22 112/270/22 111/271/22 
f 111/271/22 114/272/22 113/269/22 
s 4
f 115/273/22 116/274/22 117/275/22 
f 117/275/22 118/276/22 115/273/22 
s 2
f 119/277/21 118/278/21 117/279/21 
f 117/279/21 120/280/21 119/277/21 
s 16
f 120/281/20 117/282/20 116/283/20 
f 116/283/20 114/284/20 120/281/20 
f 119/285/18 111/286/18 115/287/18 
f 115/287/18 118/288/18 119/285/18 
# 38 faces

