


			{
				"width": 201,
				"height": 176,
				"default": "critical",
				
				"data": {
					"critical": {
						"type": "motion",
						"motionOptions": {
							"totalFrames": 40,
							"columns": 5
						}
					},
					"normal": {
						"type": "motion",
						"motionOptions": {
							"totalFrames": 40,
							"columns": 5
						}
					},
					"major": {
						"type": "motion",
						"motionOptions": {
							"totalFrames": 40,
							"columns": 5
						}
					},
					"minor": {
						"type": "motion",
						"motionOptions": {
							"totalFrames": 40,
							"columns": 5
						}
					},
					"warning": {
						"type": "motion",
						"motionOptions": {
							"totalFrames": 40,
							"columns": 5
						}
					}
				}
			}



