# 3ds Max Wavefront OBJ Exporter v0.97b - (c)2007 guruware
# File Created: 08.06.2018 13:20:10

# mtllib leakDetector_LD.mtl

#
# object leakDetector
#

v  -0.9000 -0.9000 0.2500
v  -0.9000 -0.9000 -0.2500
v  0.7500 -0.9000 -0.2500
v  0.7500 -0.9000 0.2500
v  -0.7500 0.9000 0.2500
v  0.9000 0.9000 0.2500
v  0.9000 0.9000 -0.2500
v  -0.7500 0.9000 -0.2500
v  0.9000 -0.7500 0.2500
v  -0.9000 0.7500 0.2500
v  0.9000 -0.7500 -0.2500
v  -0.9000 0.7500 -0.2500
# 12 vertices

vn 0.0000 -1.0000 -0.0000
vn 0.0000 1.0000 -0.0000
vn 0.0000 0.0000 1.0000
vn 1.0000 0.0000 -0.0000
vn 0.0000 0.0000 -1.0000
vn -1.0000 0.0000 -0.0000
vn 0.7071 -0.7071 -0.0000
vn -0.7071 0.7071 -0.0000
# 8 vertex normals

vt 0.7266 0.1270 0.0000
vt 0.8485 0.1270 0.0000
vt 0.8485 0.5293 0.0000
vt 0.7266 0.5293 0.0000
vt 0.9840 0.1270 0.0000
vt 0.9840 0.5293 0.0000
vt 0.8621 0.5293 0.0000
vt 0.8621 0.1270 0.0000
vt 0.0100 0.2823 0.0000
vt 0.6588 0.2823 0.0000
vt 0.7177 0.3412 0.0000
vt 0.7177 0.9900 0.0000
vt 0.0690 0.9900 0.0000
vt 0.0100 0.9310 0.0000
vt 0.8653 0.5829 0.0000
vt 0.9872 0.5829 0.0000
vt 0.9872 0.9852 0.0000
vt 0.8653 0.9852 0.0000
vt 0.2635 0.0125 0.0000
vt 0.2635 0.2461 0.0000
vt 0.2423 0.2673 0.0000
vt 0.0299 0.0125 0.0000
vt 0.0087 0.2673 0.0000
vt 0.0087 0.0337 0.0000
vt 0.7253 0.5463 0.0000
vt 0.8472 0.5463 0.0000
vt 0.8472 0.9486 0.0000
vt 0.7253 0.9486 0.0000
vt 0.9872 0.5463 0.0000
vt 0.8653 0.5463 0.0000
vt 0.7253 0.9852 0.0000
vt 0.8472 0.9852 0.0000
# 32 texture coords

g leakDetector
usemtl Material__28
s 1
f 1/1/1 2/2/1 3/3/1 
f 3/3/1 4/4/1 1/1/1 
f 5/5/2 6/6/2 7/7/2 
f 7/7/2 8/8/2 5/5/2 
s 2
f 1/9/3 4/10/3 9/11/3 
f 1/9/3 9/11/3 6/12/3 
f 6/12/3 5/13/3 10/14/3 
f 1/9/3 6/12/3 10/14/3 
s 4
f 9/15/4 11/16/4 7/17/4 
f 7/17/4 6/18/4 9/15/4 
s 2
f 2/19/5 12/20/5 8/21/5 
f 3/22/5 2/19/5 8/21/5 
f 3/22/5 8/21/5 7/23/5 
f 11/24/5 3/22/5 7/23/5 
s 4
f 2/25/6 1/26/6 10/27/6 
f 10/27/6 12/28/6 2/25/6 
s 8
f 3/29/7 11/16/7 9/15/7 
f 9/15/7 4/30/7 3/29/7 
f 8/31/8 12/28/8 10/27/8 
f 10/27/8 5/32/8 8/31/8 
# 0 polygons - 20 triangles

