# 3ds Max Wavefront OBJ Exporter v0.97b - (c)2007 guruware
# File Created: 05.06.2018 14:49:01

# mtllib emcRack_RK.mtl

#
# object emcStorageRack
#

v  3.0000 0.0000 5.0000
v  -3.0000 0.0000 5.0000
v  -3.0000 0.0000 -5.0000
v  3.0000 0.0000 -5.0000
v  -3.0000 20.0000 -5.0000
v  -3.0000 20.0000 5.0000
v  3.0000 20.0000 5.0000
v  3.0000 20.0000 -5.0000
# 8 vertices

vn 0.0000 -1.0000 -0.0000
vn 0.0000 1.0000 -0.0000
vn 0.0000 0.0000 1.0000
vn 1.0000 0.0000 -0.0000
vn 0.0000 0.0000 -1.0000
vn -1.0000 0.0000 -0.0000
# 6 vertex normals

vt 0.5086 0.0098 0.0000
vt 0.3138 0.0098 0.0000
vt 0.3138 0.3344 0.0000
vt 0.5086 0.3344 0.0000
vt 0.3020 0.0050 0.0000
vt 0.3020 0.9950 0.0000
vt 0.0050 0.9950 0.0000
vt 0.0050 0.0050 0.0000
vt 0.3138 0.9950 0.0000
vt 0.3138 0.3459 0.0000
vt 0.6384 0.3459 0.0000
vt 0.6384 0.9950 0.0000
vt 0.6526 0.9950 0.0000
vt 0.6526 0.3459 0.0000
vt 0.8473 0.3459 0.0000
vt 0.8473 0.9950 0.0000
# 16 texture coords

g emcStorageRack
usemtl _oraclesunRack_SVwire_228184153
s 2
f 1/1/1 2/2/1 3/3/1 4/4/1 
s 4
f 5/4/2 6/1/2 7/2/2 8/3/2 
s 8
f 6/5/3 2/6/3 1/7/3 7/8/3 
s 16
f 7/9/4 1/10/4 4/11/4 8/12/4 
s 32
f 8/13/5 4/14/5 3/15/5 5/16/5 
s 64
f 5/12/6 3/11/6 2/10/6 6/9/6 
# 6 polygons

